^F:\PROJECTS\DN - DEVELOPMENTAL NETWORKS\DEVELOPMENTALNETWORK-GENERAL\DEVELOPMENTALNETWORK\AREA.CPP|F:\PROJECTS\DN - DEVELOPMENTAL NETWORKS\DEVELOPMENTALNETWORK-GENERAL\DEVELOPMENTALNETWORK\DEVELOPMENTALNETWORK.CPP|F:\PROJECTS\DN - DEVELOPMENTAL NETWORKS\DEVELOPMENTALNETWORK-GENERAL\DEVELOPMENTALNETWORK\IMAGE_PROCESSOR.CPP|F:\PROJECTS\DN - DEVELOPMENTAL NETWORKS\DEVELOPMENTALNETWORK-GENERAL\DEVELOPMENTALNETWORK\LIVE_VIDEO.CPP|F:\PROJECTS\DN - DEVELOPMENTAL NETWORKS\DEVELOPMENTALNETWORK-GENERAL\DEVELOPMENTALNETWORK\NEURON_SAVER.CPP|F:\PROJECTS\DN - DEVELOPMENTAL NETWORKS\DEVELOPMENTALNETWORK-GENERAL\DEVELOPMENTALNETWORK\UZAREA.CPP|F:\PROJECTS\DN - DEVELOPMENTAL NETWORKS\DEVELOPMENTALNETWORK-GENERAL\DEVELOPMENTALNETWORK\VECTORS.CPP|F:\PROJECTS\DN - DEVELOPMENTAL NETWORKS\DEVELOPMENTALNETWORK-GENERAL\DEVELOPMENTALNETWORK\VOCABULARY.CPP
F:\PROJECTS\DN - DEVELOPMENTAL NETWORKS\DEVELOPMENTALNETWORK-GENERAL\DEVELOPMENTALNETWORK\X64\RELEASE\VC141.PDB
F:\PROJECTS\DN - DEVELOPMENTAL NETWORKS\DEVELOPMENTALNETWORK-GENERAL\DEVELOPMENTALNETWORK\X64\RELEASE\VOCABULARY.OBJ
F:\PROJECTS\DN - DEVELOPMENTAL NETWORKS\DEVELOPMENTALNETWORK-GENERAL\DEVELOPMENTALNETWORK\X64\RELEASE\IMAGE_PROCESSOR.OBJ
F:\PROJECTS\DN - DEVELOPMENTAL NETWORKS\DEVELOPMENTALNETWORK-GENERAL\DEVELOPMENTALNETWORK\X64\RELEASE\VECTORS.OBJ
F:\PROJECTS\DN - DEVELOPMENTAL NETWORKS\DEVELOPMENTALNETWORK-GENERAL\DEVELOPMENTALNETWORK\X64\RELEASE\UZAREA.OBJ
F:\PROJECTS\DN - DEVELOPMENTAL NETWORKS\DEVELOPMENTALNETWORK-GENERAL\DEVELOPMENTALNETWORK\X64\RELEASE\NEURON_SAVER.OBJ
F:\PROJECTS\DN - DEVELOPMENTAL NETWORKS\DEVELOPMENTALNETWORK-GENERAL\DEVELOPMENTALNETWORK\X64\RELEASE\LIVE_VIDEO.OBJ
F:\PROJECTS\DN - DEVELOPMENTAL NETWORKS\DEVELOPMENTALNETWORK-GENERAL\DEVELOPMENTALNETWORK\X64\RELEASE\DEVELOPMENTALNETWORK.OBJ
^F:\PROJECTS\DN - DEVELOPMENTAL NETWORKS\DEVELOPMENTALNETWORK-GENERAL\DEVELOPMENTALNETWORK\LIVE_VIDEO.CPP
F:\PROJECTS\DN - DEVELOPMENTAL NETWORKS\DEVELOPMENTALNETWORK-GENERAL\DEVELOPMENTALNETWORK\X64\RELEASE\LIVE_VIDEO.OBJ
^F:\PROJECTS\DN - DEVELOPMENTAL NETWORKS\DEVELOPMENTALNETWORK-GENERAL\DEVELOPMENTALNETWORK\VOCABULARY.CPP
F:\PROJECTS\DN - DEVELOPMENTAL NETWORKS\DEVELOPMENTALNETWORK-GENERAL\DEVELOPMENTALNETWORK\X64\RELEASE\VOCABULARY.OBJ
^F:\PROJECTS\DN - DEVELOPMENTAL NETWORKS\DEVELOPMENTALNETWORK-GENERAL\DEVELOPMENTALNETWORK\AREA.CPP|F:\PROJECTS\DN - DEVELOPMENTAL NETWORKS\DEVELOPMENTALNETWORK-GENERAL\DEVELOPMENTALNETWORK\DEVELOPMENTALNETWORK.CPP|F:\PROJECTS\DN - DEVELOPMENTAL NETWORKS\DEVELOPMENTALNETWORK-GENERAL\DEVELOPMENTALNETWORK\UZAREA.CPP
F:\PROJECTS\DN - DEVELOPMENTAL NETWORKS\DEVELOPMENTALNETWORK-GENERAL\DEVELOPMENTALNETWORK\X64\RELEASE\VC141.PDB
F:\PROJECTS\DN - DEVELOPMENTAL NETWORKS\DEVELOPMENTALNETWORK-GENERAL\DEVELOPMENTALNETWORK\X64\RELEASE\UZAREA.OBJ
F:\PROJECTS\DN - DEVELOPMENTAL NETWORKS\DEVELOPMENTALNETWORK-GENERAL\DEVELOPMENTALNETWORK\X64\RELEASE\DEVELOPMENTALNETWORK.OBJ
F:\PROJECTS\DN - DEVELOPMENTAL NETWORKS\DEVELOPMENTALNETWORK-GENERAL\DEVELOPMENTALNETWORK\X64\RELEASE\AREA.OBJ
^F:\PROJECTS\DN - DEVELOPMENTAL NETWORKS\DEVELOPMENTALNETWORK-GENERAL\DEVELOPMENTALNETWORK\AREA.CPP|F:\PROJECTS\DN - DEVELOPMENTAL NETWORKS\DEVELOPMENTALNETWORK-GENERAL\DEVELOPMENTALNETWORK\DEVELOPMENTALNETWORK.CPP|F:\PROJECTS\DN - DEVELOPMENTAL NETWORKS\DEVELOPMENTALNETWORK-GENERAL\DEVELOPMENTALNETWORK\IMAGE_PROCESSOR.CPP|F:\PROJECTS\DN - DEVELOPMENTAL NETWORKS\DEVELOPMENTALNETWORK-GENERAL\DEVELOPMENTALNETWORK\NEURON_SAVER.CPP|F:\PROJECTS\DN - DEVELOPMENTAL NETWORKS\DEVELOPMENTALNETWORK-GENERAL\DEVELOPMENTALNETWORK\UZAREA.CPP|F:\PROJECTS\DN - DEVELOPMENTAL NETWORKS\DEVELOPMENTALNETWORK-GENERAL\DEVELOPMENTALNETWORK\VECTORS.CPP
F:\PROJECTS\DN - DEVELOPMENTAL NETWORKS\DEVELOPMENTALNETWORK-GENERAL\DEVELOPMENTALNETWORK\X64\RELEASE\VC141.PDB
F:\PROJECTS\DN - DEVELOPMENTAL NETWORKS\DEVELOPMENTALNETWORK-GENERAL\DEVELOPMENTALNETWORK\X64\RELEASE\VECTORS.OBJ
F:\PROJECTS\DN - DEVELOPMENTAL NETWORKS\DEVELOPMENTALNETWORK-GENERAL\DEVELOPMENTALNETWORK\X64\RELEASE\UZAREA.OBJ
F:\PROJECTS\DN - DEVELOPMENTAL NETWORKS\DEVELOPMENTALNETWORK-GENERAL\DEVELOPMENTALNETWORK\X64\RELEASE\NEURON_SAVER.OBJ
F:\PROJECTS\DN - DEVELOPMENTAL NETWORKS\DEVELOPMENTALNETWORK-GENERAL\DEVELOPMENTALNETWORK\X64\RELEASE\IMAGE_PROCESSOR.OBJ
F:\PROJECTS\DN - DEVELOPMENTAL NETWORKS\DEVELOPMENTALNETWORK-GENERAL\DEVELOPMENTALNETWORK\X64\RELEASE\DEVELOPMENTALNETWORK.OBJ
F:\PROJECTS\DN - DEVELOPMENTAL NETWORKS\DEVELOPMENTALNETWORK-GENERAL\DEVELOPMENTALNETWORK\X64\RELEASE\AREA.OBJ
^F:\PROJECTS\DN - DEVELOPMENTAL NETWORKS\DEVELOPMENTALNETWORK-GENERAL\DEVELOPMENTALNETWORK\AREA.CPP
F:\PROJECTS\DN - DEVELOPMENTAL NETWORKS\DEVELOPMENTALNETWORK-GENERAL\DEVELOPMENTALNETWORK\X64\RELEASE\VC141.PDB
^F:\PROJECTS\DN - DEVELOPMENTAL NETWORKS\DEVELOPMENTALNETWORK-GENERAL\DEVELOPMENTALNETWORK\DEVELOPMENTALNETWORK.CPP
F:\PROJECTS\DN - DEVELOPMENTAL NETWORKS\DEVELOPMENTALNETWORK-GENERAL\DEVELOPMENTALNETWORK\X64\RELEASE\VC141.PDB
^F:\PROJECTS\DN - DEVELOPMENTAL NETWORKS\DEVELOPMENTALNETWORK-GENERAL\DEVELOPMENTALNETWORK\IMAGE_PROCESSOR.CPP
F:\PROJECTS\DN - DEVELOPMENTAL NETWORKS\DEVELOPMENTALNETWORK-GENERAL\DEVELOPMENTALNETWORK\X64\RELEASE\VC141.PDB
^F:\PROJECTS\DN - DEVELOPMENTAL NETWORKS\DEVELOPMENTALNETWORK-GENERAL\DEVELOPMENTALNETWORK\NEURON_SAVER.CPP
F:\PROJECTS\DN - DEVELOPMENTAL NETWORKS\DEVELOPMENTALNETWORK-GENERAL\DEVELOPMENTALNETWORK\X64\RELEASE\VC141.PDB
^F:\PROJECTS\DN - DEVELOPMENTAL NETWORKS\DEVELOPMENTALNETWORK-GENERAL\DEVELOPMENTALNETWORK\UZAREA.CPP
F:\PROJECTS\DN - DEVELOPMENTAL NETWORKS\DEVELOPMENTALNETWORK-GENERAL\DEVELOPMENTALNETWORK\X64\RELEASE\VC141.PDB
^F:\PROJECTS\DN - DEVELOPMENTAL NETWORKS\DEVELOPMENTALNETWORK-GENERAL\DEVELOPMENTALNETWORK\VECTORS.CPP
F:\PROJECTS\DN - DEVELOPMENTAL NETWORKS\DEVELOPMENTALNETWORK-GENERAL\DEVELOPMENTALNETWORK\X64\RELEASE\VC141.PDB
^F:\PROJECTS\DN - DEVELOPMENTAL NETWORKS\DEVELOPMENTALNETWORK-GENERAL\DEVELOPMENTALNETWORK\DN-MAIN.CPP
F:\PROJECTS\DN - DEVELOPMENTAL NETWORKS\DEVELOPMENTALNETWORK-GENERAL\DEVELOPMENTALNETWORK\X64\RELEASE\VC141.PDB
F:\PROJECTS\DN - DEVELOPMENTAL NETWORKS\DEVELOPMENTALNETWORK-GENERAL\DEVELOPMENTALNETWORK\X64\RELEASE\DN-MAIN.OBJ
