^F:\PROJECTS\DN - DEVELOPMENTAL NETWORKS\DEVELOPMENTALNETWORK-GENERAL\DEVELOPMENTALNETWORK\X64\RELEASE\AREA.OBJ|F:\PROJECTS\DN - DEVELOPMENTAL NETWORKS\DEVELOPMENTALNETWORK-GENERAL\DEVELOPMENTALNETWORK\X64\RELEASE\DEVELOPMENTALNETWORK.OBJ|F:\PROJECTS\DN - DEVELOPMENTAL NETWORKS\DEVELOPMENTALNETWORK-GENERAL\DEVELOPMENTALNETWORK\X64\RELEASE\DEVELOPMENTALNETWORK.RES|F:\PROJECTS\DN - DEVELOPMENTAL NETWORKS\DEVELOPMENTALNETWORK-GENERAL\DEVELOPMENTALNETWORK\X64\RELEASE\DN-MAIN.OBJ|F:\PROJECTS\DN - DEVELOPMENTAL NETWORKS\DEVELOPMENTALNETWORK-GENERAL\DEVELOPMENTALNETWORK\X64\RELEASE\IMAGE_PROCESSOR.OBJ|F:\PROJECTS\DN - DEVELOPMENTAL NETWORKS\DEVELOPMENTALNETWORK-GENERAL\DEVELOPMENTALNETWORK\X64\RELEASE\LIVE_VIDEO.OBJ|F:\PROJECTS\DN - DEVELOPMENTAL NETWORKS\DEVELOPMENTALNETWORK-GENERAL\DEVELOPMENTALNETWORK\X64\RELEASE\NEURON_SAVER.OBJ|F:\PROJECTS\DN - DEVELOPMENTAL NETWORKS\DEVELOPMENTALNETWORK-GENERAL\DEVELOPMENTALNETWORK\X64\RELEASE\UZAREA.OBJ|F:\PROJECTS\DN - DEVELOPMENTAL NETWORKS\DEVELOPMENTALNETWORK-GENERAL\DEVELOPMENTALNETWORK\X64\RELEASE\VECTORS.OBJ|F:\PROJECTS\DN - DEVELOPMENTAL NETWORKS\DEVELOPMENTALNETWORK-GENERAL\DEVELOPMENTALNETWORK\X64\RELEASE\VOCABULARY.OBJ
F:\PROJECTS\DN - DEVELOPMENTAL NETWORKS\DEVELOPMENTALNETWORK-GENERAL\X64\RELEASE\DEVELOPMENTALNETWORK.EXE
F:\PROJECTS\DN - DEVELOPMENTAL NETWORKS\DEVELOPMENTALNETWORK-GENERAL\X64\RELEASE\DEVELOPMENTALNETWORK.PDB
