^D:\PROJECTS\DN - DEVELOPMENTAL NETWORKS\DEVELOPMENTALNETWORK-GENERAL\DEVELOPMENTALNETWORK\Z_AREA.CPP
D:\PROJECTS\DN - DEVELOPMENTAL NETWORKS\DEVELOPMENTALNETWORK-GENERAL\DEVELOPMENTALNETWORK\Z_AREA.H
D:\PROJECTS\DN - DEVELOPMENTAL NETWORKS\DEVELOPMENTALNETWORK-GENERAL\DEVELOPMENTALNETWORK\AREA.H
D:\VS14\VC\INCLUDE\IOSTREAM
D:\VS14\VC\INCLUDE\ISTREAM
D:\VS14\VC\INCLUDE\OSTREAM
D:\VS14\VC\INCLUDE\IOS
D:\VS14\VC\INCLUDE\XLOCNUM
D:\VS14\VC\INCLUDE\CLIMITS
D:\VS14\VC\INCLUDE\YVALS.H
D:\VS14\VC\INCLUDE\XKEYCHECK.H
D:\VS14\VC\INCLUDE\CRTDEFS.H
D:\VS14\VC\INCLUDE\VCRUNTIME.H
D:\VS14\VC\INCLUDE\SAL.H
D:\VS14\VC\INCLUDE\CONCURRENCYSAL.H
D:\VS14\VC\INCLUDE\VADEFS.H
C:\PROGRAM FILES (X86)\WINDOWS KITS\10\INCLUDE\10.0.10240.0\UCRT\CORECRT.H
D:\VS14\VC\INCLUDE\USE_ANSI.H
D:\VS14\VC\INCLUDE\LIMITS.H
D:\VS14\VC\INCLUDE\CMATH
C:\PROGRAM FILES (X86)\WINDOWS KITS\10\INCLUDE\10.0.10240.0\UCRT\MATH.H
D:\VS14\VC\INCLUDE\XTGMATH.H
D:\VS14\VC\INCLUDE\XTR1COMMON
D:\VS14\VC\INCLUDE\CSTDLIB
C:\PROGRAM FILES (X86)\WINDOWS KITS\10\INCLUDE\10.0.10240.0\UCRT\STDLIB.H
C:\PROGRAM FILES (X86)\WINDOWS KITS\10\INCLUDE\10.0.10240.0\UCRT\CORECRT_MALLOC.H
C:\PROGRAM FILES (X86)\WINDOWS KITS\10\INCLUDE\10.0.10240.0\UCRT\CORECRT_SEARCH.H
C:\PROGRAM FILES (X86)\WINDOWS KITS\10\INCLUDE\10.0.10240.0\UCRT\STDDEF.H
C:\PROGRAM FILES (X86)\WINDOWS KITS\10\INCLUDE\10.0.10240.0\UCRT\CORECRT_WSTDLIB.H
D:\VS14\VC\INCLUDE\CSTDIO
C:\PROGRAM FILES (X86)\WINDOWS KITS\10\INCLUDE\10.0.10240.0\UCRT\STDIO.H
C:\PROGRAM FILES (X86)\WINDOWS KITS\10\INCLUDE\10.0.10240.0\UCRT\CORECRT_WSTDIO.H
C:\PROGRAM FILES (X86)\WINDOWS KITS\10\INCLUDE\10.0.10240.0\UCRT\CORECRT_STDIO_CONFIG.H
D:\VS14\VC\INCLUDE\STREAMBUF
D:\VS14\VC\INCLUDE\XIOSBASE
D:\VS14\VC\INCLUDE\XLOCALE
D:\VS14\VC\INCLUDE\CSTRING
C:\PROGRAM FILES (X86)\WINDOWS KITS\10\INCLUDE\10.0.10240.0\UCRT\STRING.H
C:\PROGRAM FILES (X86)\WINDOWS KITS\10\INCLUDE\10.0.10240.0\UCRT\CORECRT_MEMORY.H
C:\PROGRAM FILES (X86)\WINDOWS KITS\10\INCLUDE\10.0.10240.0\UCRT\CORECRT_MEMCPY_S.H
C:\PROGRAM FILES (X86)\WINDOWS KITS\10\INCLUDE\10.0.10240.0\UCRT\ERRNO.H
D:\VS14\VC\INCLUDE\VCRUNTIME_STRING.H
C:\PROGRAM FILES (X86)\WINDOWS KITS\10\INCLUDE\10.0.10240.0\UCRT\CORECRT_WSTRING.H
D:\VS14\VC\INCLUDE\STDEXCEPT
D:\VS14\VC\INCLUDE\EXCEPTION
D:\VS14\VC\INCLUDE\TYPE_TRAITS
D:\VS14\VC\INCLUDE\XSTDDEF
D:\VS14\VC\INCLUDE\CSTDDEF
D:\VS14\VC\INCLUDE\INITIALIZER_LIST
C:\PROGRAM FILES (X86)\WINDOWS KITS\10\INCLUDE\10.0.10240.0\UCRT\MALLOC.H
D:\VS14\VC\INCLUDE\VCRUNTIME_EXCEPTION.H
D:\VS14\VC\INCLUDE\EH.H
C:\PROGRAM FILES (X86)\WINDOWS KITS\10\INCLUDE\10.0.10240.0\UCRT\CORECRT_TERMINATE.H
D:\VS14\VC\INCLUDE\XSTRING
D:\VS14\VC\INCLUDE\XMEMORY0
D:\VS14\VC\INCLUDE\CSTDINT
D:\VS14\VC\INCLUDE\STDINT.H
D:\VS14\VC\INCLUDE\LIMITS
D:\VS14\VC\INCLUDE\YMATH.H
D:\VS14\VC\INCLUDE\CFLOAT
C:\PROGRAM FILES (X86)\WINDOWS KITS\10\INCLUDE\10.0.10240.0\UCRT\FLOAT.H
D:\VS14\VC\INCLUDE\CWCHAR
C:\PROGRAM FILES (X86)\WINDOWS KITS\10\INCLUDE\10.0.10240.0\UCRT\WCHAR.H
C:\PROGRAM FILES (X86)\WINDOWS KITS\10\INCLUDE\10.0.10240.0\UCRT\CORECRT_WCONIO.H
C:\PROGRAM FILES (X86)\WINDOWS KITS\10\INCLUDE\10.0.10240.0\UCRT\CORECRT_WCTYPE.H
C:\PROGRAM FILES (X86)\WINDOWS KITS\10\INCLUDE\10.0.10240.0\UCRT\CORECRT_WDIRECT.H
C:\PROGRAM FILES (X86)\WINDOWS KITS\10\INCLUDE\10.0.10240.0\UCRT\CORECRT_WIO.H
C:\PROGRAM FILES (X86)\WINDOWS KITS\10\INCLUDE\10.0.10240.0\UCRT\CORECRT_SHARE.H
C:\PROGRAM FILES (X86)\WINDOWS KITS\10\INCLUDE\10.0.10240.0\UCRT\CORECRT_WPROCESS.H
C:\PROGRAM FILES (X86)\WINDOWS KITS\10\INCLUDE\10.0.10240.0\UCRT\CORECRT_WTIME.H
C:\PROGRAM FILES (X86)\WINDOWS KITS\10\INCLUDE\10.0.10240.0\UCRT\SYS\STAT.H
C:\PROGRAM FILES (X86)\WINDOWS KITS\10\INCLUDE\10.0.10240.0\UCRT\SYS\TYPES.H
D:\VS14\VC\INCLUDE\NEW
D:\VS14\VC\INCLUDE\VCRUNTIME_NEW.H
D:\VS14\VC\INCLUDE\XUTILITY
D:\VS14\VC\INCLUDE\UTILITY
D:\VS14\VC\INCLUDE\IOSFWD
C:\PROGRAM FILES (X86)\WINDOWS KITS\10\INCLUDE\10.0.10240.0\UCRT\CRTDBG.H
D:\VS14\VC\INCLUDE\VCRUNTIME_NEW_DEBUG.H
D:\VS14\VC\INCLUDE\XATOMIC0.H
D:\VS14\VC\INCLUDE\INTRIN.H
D:\VS14\VC\INCLUDE\SETJMP.H
D:\VS14\VC\INCLUDE\IMMINTRIN.H
D:\VS14\VC\INCLUDE\WMMINTRIN.H
D:\VS14\VC\INCLUDE\NMMINTRIN.H
D:\VS14\VC\INCLUDE\SMMINTRIN.H
D:\VS14\VC\INCLUDE\TMMINTRIN.H
D:\VS14\VC\INCLUDE\PMMINTRIN.H
D:\VS14\VC\INCLUDE\EMMINTRIN.H
D:\VS14\VC\INCLUDE\XMMINTRIN.H
D:\VS14\VC\INCLUDE\MMINTRIN.H
D:\VS14\VC\INCLUDE\AMMINTRIN.H
D:\VS14\VC\INCLUDE\MM3DNOW.H
D:\VS14\VC\INCLUDE\TYPEINFO
D:\VS14\VC\INCLUDE\VCRUNTIME_TYPEINFO.H
D:\VS14\VC\INCLUDE\XLOCINFO
D:\VS14\VC\INCLUDE\XLOCINFO.H
C:\PROGRAM FILES (X86)\WINDOWS KITS\10\INCLUDE\10.0.10240.0\UCRT\CTYPE.H
C:\PROGRAM FILES (X86)\WINDOWS KITS\10\INCLUDE\10.0.10240.0\UCRT\LOCALE.H
D:\VS14\VC\INCLUDE\XFACET
D:\VS14\VC\INCLUDE\SYSTEM_ERROR
D:\VS14\VC\INCLUDE\CERRNO
C:\PROGRAM FILES (X86)\WINDOWS KITS\10\INCLUDE\10.0.10240.0\UCRT\SHARE.H
D:\VS14\VC\INCLUDE\FSTREAM
D:\VS14\VC\INCLUDE\VECTOR
D:\VS14\VC\INCLUDE\XMEMORY
D:\PROJECTS\DN - DEVELOPMENTAL NETWORKS\DEVELOPMENTALNETWORK-GENERAL\DEVELOPMENTALNETWORK\VECTORS.H
D:\VS14\VC\INCLUDE\ALGORITHM
D:\VS14\VC\INCLUDE\SET
D:\VS14\VC\INCLUDE\XTREE
D:\VS14\VC\INCLUDE\MAP
D:\VS14\VC\INCLUDE\TUPLE
D:\PROJECTS\DN - DEVELOPMENTAL NETWORKS\DEVELOPMENTALNETWORK-GENERAL\DEVELOPMENTALNETWORK\NEURON_SAVER.H
D:\VS14\VC\INCLUDE\STRING
C:\PROGRAM FILES (X86)\WINDOWS KITS\10\INCLUDE\10.0.10240.0\UCRT\TIME.H
D:\VS14\VC\INCLUDE\RANDOM
^D:\PROJECTS\DN - DEVELOPMENTAL NETWORKS\DEVELOPMENTALNETWORK-GENERAL\DEVELOPMENTALNETWORK\Y_AREA.CPP
D:\PROJECTS\DN - DEVELOPMENTAL NETWORKS\DEVELOPMENTALNETWORK-GENERAL\DEVELOPMENTALNETWORK\Y_AREA.H
D:\PROJECTS\DN - DEVELOPMENTAL NETWORKS\DEVELOPMENTALNETWORK-GENERAL\DEVELOPMENTALNETWORK\AREA.H
D:\VS14\VC\INCLUDE\IOSTREAM
D:\VS14\VC\INCLUDE\ISTREAM
D:\VS14\VC\INCLUDE\OSTREAM
D:\VS14\VC\INCLUDE\IOS
D:\VS14\VC\INCLUDE\XLOCNUM
D:\VS14\VC\INCLUDE\CLIMITS
D:\VS14\VC\INCLUDE\YVALS.H
D:\VS14\VC\INCLUDE\XKEYCHECK.H
D:\VS14\VC\INCLUDE\CRTDEFS.H
D:\VS14\VC\INCLUDE\VCRUNTIME.H
D:\VS14\VC\INCLUDE\SAL.H
D:\VS14\VC\INCLUDE\CONCURRENCYSAL.H
D:\VS14\VC\INCLUDE\VADEFS.H
C:\PROGRAM FILES (X86)\WINDOWS KITS\10\INCLUDE\10.0.10240.0\UCRT\CORECRT.H
D:\VS14\VC\INCLUDE\USE_ANSI.H
D:\VS14\VC\INCLUDE\LIMITS.H
D:\VS14\VC\INCLUDE\CMATH
C:\PROGRAM FILES (X86)\WINDOWS KITS\10\INCLUDE\10.0.10240.0\UCRT\MATH.H
D:\VS14\VC\INCLUDE\XTGMATH.H
D:\VS14\VC\INCLUDE\XTR1COMMON
D:\VS14\VC\INCLUDE\CSTDLIB
C:\PROGRAM FILES (X86)\WINDOWS KITS\10\INCLUDE\10.0.10240.0\UCRT\STDLIB.H
C:\PROGRAM FILES (X86)\WINDOWS KITS\10\INCLUDE\10.0.10240.0\UCRT\CORECRT_MALLOC.H
C:\PROGRAM FILES (X86)\WINDOWS KITS\10\INCLUDE\10.0.10240.0\UCRT\CORECRT_SEARCH.H
C:\PROGRAM FILES (X86)\WINDOWS KITS\10\INCLUDE\10.0.10240.0\UCRT\STDDEF.H
C:\PROGRAM FILES (X86)\WINDOWS KITS\10\INCLUDE\10.0.10240.0\UCRT\CORECRT_WSTDLIB.H
D:\VS14\VC\INCLUDE\CSTDIO
C:\PROGRAM FILES (X86)\WINDOWS KITS\10\INCLUDE\10.0.10240.0\UCRT\STDIO.H
C:\PROGRAM FILES (X86)\WINDOWS KITS\10\INCLUDE\10.0.10240.0\UCRT\CORECRT_WSTDIO.H
C:\PROGRAM FILES (X86)\WINDOWS KITS\10\INCLUDE\10.0.10240.0\UCRT\CORECRT_STDIO_CONFIG.H
D:\VS14\VC\INCLUDE\STREAMBUF
D:\VS14\VC\INCLUDE\XIOSBASE
D:\VS14\VC\INCLUDE\XLOCALE
D:\VS14\VC\INCLUDE\CSTRING
C:\PROGRAM FILES (X86)\WINDOWS KITS\10\INCLUDE\10.0.10240.0\UCRT\STRING.H
C:\PROGRAM FILES (X86)\WINDOWS KITS\10\INCLUDE\10.0.10240.0\UCRT\CORECRT_MEMORY.H
C:\PROGRAM FILES (X86)\WINDOWS KITS\10\INCLUDE\10.0.10240.0\UCRT\CORECRT_MEMCPY_S.H
C:\PROGRAM FILES (X86)\WINDOWS KITS\10\INCLUDE\10.0.10240.0\UCRT\ERRNO.H
D:\VS14\VC\INCLUDE\VCRUNTIME_STRING.H
C:\PROGRAM FILES (X86)\WINDOWS KITS\10\INCLUDE\10.0.10240.0\UCRT\CORECRT_WSTRING.H
D:\VS14\VC\INCLUDE\STDEXCEPT
D:\VS14\VC\INCLUDE\EXCEPTION
D:\VS14\VC\INCLUDE\TYPE_TRAITS
D:\VS14\VC\INCLUDE\XSTDDEF
D:\VS14\VC\INCLUDE\CSTDDEF
D:\VS14\VC\INCLUDE\INITIALIZER_LIST
C:\PROGRAM FILES (X86)\WINDOWS KITS\10\INCLUDE\10.0.10240.0\UCRT\MALLOC.H
D:\VS14\VC\INCLUDE\VCRUNTIME_EXCEPTION.H
D:\VS14\VC\INCLUDE\EH.H
C:\PROGRAM FILES (X86)\WINDOWS KITS\10\INCLUDE\10.0.10240.0\UCRT\CORECRT_TERMINATE.H
D:\VS14\VC\INCLUDE\XSTRING
D:\VS14\VC\INCLUDE\XMEMORY0
D:\VS14\VC\INCLUDE\CSTDINT
D:\VS14\VC\INCLUDE\STDINT.H
D:\VS14\VC\INCLUDE\LIMITS
D:\VS14\VC\INCLUDE\YMATH.H
D:\VS14\VC\INCLUDE\CFLOAT
C:\PROGRAM FILES (X86)\WINDOWS KITS\10\INCLUDE\10.0.10240.0\UCRT\FLOAT.H
D:\VS14\VC\INCLUDE\CWCHAR
C:\PROGRAM FILES (X86)\WINDOWS KITS\10\INCLUDE\10.0.10240.0\UCRT\WCHAR.H
C:\PROGRAM FILES (X86)\WINDOWS KITS\10\INCLUDE\10.0.10240.0\UCRT\CORECRT_WCONIO.H
C:\PROGRAM FILES (X86)\WINDOWS KITS\10\INCLUDE\10.0.10240.0\UCRT\CORECRT_WCTYPE.H
C:\PROGRAM FILES (X86)\WINDOWS KITS\10\INCLUDE\10.0.10240.0\UCRT\CORECRT_WDIRECT.H
C:\PROGRAM FILES (X86)\WINDOWS KITS\10\INCLUDE\10.0.10240.0\UCRT\CORECRT_WIO.H
C:\PROGRAM FILES (X86)\WINDOWS KITS\10\INCLUDE\10.0.10240.0\UCRT\CORECRT_SHARE.H
C:\PROGRAM FILES (X86)\WINDOWS KITS\10\INCLUDE\10.0.10240.0\UCRT\CORECRT_WPROCESS.H
C:\PROGRAM FILES (X86)\WINDOWS KITS\10\INCLUDE\10.0.10240.0\UCRT\CORECRT_WTIME.H
C:\PROGRAM FILES (X86)\WINDOWS KITS\10\INCLUDE\10.0.10240.0\UCRT\SYS\STAT.H
C:\PROGRAM FILES (X86)\WINDOWS KITS\10\INCLUDE\10.0.10240.0\UCRT\SYS\TYPES.H
D:\VS14\VC\INCLUDE\NEW
D:\VS14\VC\INCLUDE\VCRUNTIME_NEW.H
D:\VS14\VC\INCLUDE\XUTILITY
D:\VS14\VC\INCLUDE\UTILITY
D:\VS14\VC\INCLUDE\IOSFWD
C:\PROGRAM FILES (X86)\WINDOWS KITS\10\INCLUDE\10.0.10240.0\UCRT\CRTDBG.H
D:\VS14\VC\INCLUDE\VCRUNTIME_NEW_DEBUG.H
D:\VS14\VC\INCLUDE\XATOMIC0.H
D:\VS14\VC\INCLUDE\INTRIN.H
D:\VS14\VC\INCLUDE\SETJMP.H
D:\VS14\VC\INCLUDE\IMMINTRIN.H
D:\VS14\VC\INCLUDE\WMMINTRIN.H
D:\VS14\VC\INCLUDE\NMMINTRIN.H
D:\VS14\VC\INCLUDE\SMMINTRIN.H
D:\VS14\VC\INCLUDE\TMMINTRIN.H
D:\VS14\VC\INCLUDE\PMMINTRIN.H
D:\VS14\VC\INCLUDE\EMMINTRIN.H
D:\VS14\VC\INCLUDE\XMMINTRIN.H
D:\VS14\VC\INCLUDE\MMINTRIN.H
D:\VS14\VC\INCLUDE\AMMINTRIN.H
D:\VS14\VC\INCLUDE\MM3DNOW.H
D:\VS14\VC\INCLUDE\TYPEINFO
D:\VS14\VC\INCLUDE\VCRUNTIME_TYPEINFO.H
D:\VS14\VC\INCLUDE\XLOCINFO
D:\VS14\VC\INCLUDE\XLOCINFO.H
C:\PROGRAM FILES (X86)\WINDOWS KITS\10\INCLUDE\10.0.10240.0\UCRT\CTYPE.H
C:\PROGRAM FILES (X86)\WINDOWS KITS\10\INCLUDE\10.0.10240.0\UCRT\LOCALE.H
D:\VS14\VC\INCLUDE\XFACET
D:\VS14\VC\INCLUDE\SYSTEM_ERROR
D:\VS14\VC\INCLUDE\CERRNO
C:\PROGRAM FILES (X86)\WINDOWS KITS\10\INCLUDE\10.0.10240.0\UCRT\SHARE.H
D:\VS14\VC\INCLUDE\FSTREAM
D:\VS14\VC\INCLUDE\VECTOR
D:\VS14\VC\INCLUDE\XMEMORY
D:\PROJECTS\DN - DEVELOPMENTAL NETWORKS\DEVELOPMENTALNETWORK-GENERAL\DEVELOPMENTALNETWORK\VECTORS.H
D:\VS14\VC\INCLUDE\ALGORITHM
D:\VS14\VC\INCLUDE\SET
D:\VS14\VC\INCLUDE\XTREE
D:\VS14\VC\INCLUDE\MAP
D:\VS14\VC\INCLUDE\TUPLE
D:\PROJECTS\DN - DEVELOPMENTAL NETWORKS\DEVELOPMENTALNETWORK-GENERAL\DEVELOPMENTALNETWORK\NEURON_SAVER.H
D:\VS14\VC\INCLUDE\RANDOM
^D:\PROJECTS\DN - DEVELOPMENTAL NETWORKS\DEVELOPMENTALNETWORK-GENERAL\DEVELOPMENTALNETWORK\X_AREA.CPP
D:\PROJECTS\DN - DEVELOPMENTAL NETWORKS\DEVELOPMENTALNETWORK-GENERAL\DEVELOPMENTALNETWORK\X_AREA.H
D:\PROJECTS\DN - DEVELOPMENTAL NETWORKS\DEVELOPMENTALNETWORK-GENERAL\DEVELOPMENTALNETWORK\AREA.H
D:\VS14\VC\INCLUDE\IOSTREAM
D:\VS14\VC\INCLUDE\ISTREAM
D:\VS14\VC\INCLUDE\OSTREAM
D:\VS14\VC\INCLUDE\IOS
D:\VS14\VC\INCLUDE\XLOCNUM
D:\VS14\VC\INCLUDE\CLIMITS
D:\VS14\VC\INCLUDE\YVALS.H
D:\VS14\VC\INCLUDE\XKEYCHECK.H
D:\VS14\VC\INCLUDE\CRTDEFS.H
D:\VS14\VC\INCLUDE\VCRUNTIME.H
D:\VS14\VC\INCLUDE\SAL.H
D:\VS14\VC\INCLUDE\CONCURRENCYSAL.H
D:\VS14\VC\INCLUDE\VADEFS.H
C:\PROGRAM FILES (X86)\WINDOWS KITS\10\INCLUDE\10.0.10240.0\UCRT\CORECRT.H
D:\VS14\VC\INCLUDE\USE_ANSI.H
D:\VS14\VC\INCLUDE\LIMITS.H
D:\VS14\VC\INCLUDE\CMATH
C:\PROGRAM FILES (X86)\WINDOWS KITS\10\INCLUDE\10.0.10240.0\UCRT\MATH.H
D:\VS14\VC\INCLUDE\XTGMATH.H
D:\VS14\VC\INCLUDE\XTR1COMMON
D:\VS14\VC\INCLUDE\CSTDLIB
C:\PROGRAM FILES (X86)\WINDOWS KITS\10\INCLUDE\10.0.10240.0\UCRT\STDLIB.H
C:\PROGRAM FILES (X86)\WINDOWS KITS\10\INCLUDE\10.0.10240.0\UCRT\CORECRT_MALLOC.H
C:\PROGRAM FILES (X86)\WINDOWS KITS\10\INCLUDE\10.0.10240.0\UCRT\CORECRT_SEARCH.H
C:\PROGRAM FILES (X86)\WINDOWS KITS\10\INCLUDE\10.0.10240.0\UCRT\STDDEF.H
C:\PROGRAM FILES (X86)\WINDOWS KITS\10\INCLUDE\10.0.10240.0\UCRT\CORECRT_WSTDLIB.H
D:\VS14\VC\INCLUDE\CSTDIO
C:\PROGRAM FILES (X86)\WINDOWS KITS\10\INCLUDE\10.0.10240.0\UCRT\STDIO.H
C:\PROGRAM FILES (X86)\WINDOWS KITS\10\INCLUDE\10.0.10240.0\UCRT\CORECRT_WSTDIO.H
C:\PROGRAM FILES (X86)\WINDOWS KITS\10\INCLUDE\10.0.10240.0\UCRT\CORECRT_STDIO_CONFIG.H
D:\VS14\VC\INCLUDE\STREAMBUF
D:\VS14\VC\INCLUDE\XIOSBASE
D:\VS14\VC\INCLUDE\XLOCALE
D:\VS14\VC\INCLUDE\CSTRING
C:\PROGRAM FILES (X86)\WINDOWS KITS\10\INCLUDE\10.0.10240.0\UCRT\STRING.H
C:\PROGRAM FILES (X86)\WINDOWS KITS\10\INCLUDE\10.0.10240.0\UCRT\CORECRT_MEMORY.H
C:\PROGRAM FILES (X86)\WINDOWS KITS\10\INCLUDE\10.0.10240.0\UCRT\CORECRT_MEMCPY_S.H
C:\PROGRAM FILES (X86)\WINDOWS KITS\10\INCLUDE\10.0.10240.0\UCRT\ERRNO.H
D:\VS14\VC\INCLUDE\VCRUNTIME_STRING.H
C:\PROGRAM FILES (X86)\WINDOWS KITS\10\INCLUDE\10.0.10240.0\UCRT\CORECRT_WSTRING.H
D:\VS14\VC\INCLUDE\STDEXCEPT
D:\VS14\VC\INCLUDE\EXCEPTION
D:\VS14\VC\INCLUDE\TYPE_TRAITS
D:\VS14\VC\INCLUDE\XSTDDEF
D:\VS14\VC\INCLUDE\CSTDDEF
D:\VS14\VC\INCLUDE\INITIALIZER_LIST
C:\PROGRAM FILES (X86)\WINDOWS KITS\10\INCLUDE\10.0.10240.0\UCRT\MALLOC.H
D:\VS14\VC\INCLUDE\VCRUNTIME_EXCEPTION.H
D:\VS14\VC\INCLUDE\EH.H
C:\PROGRAM FILES (X86)\WINDOWS KITS\10\INCLUDE\10.0.10240.0\UCRT\CORECRT_TERMINATE.H
D:\VS14\VC\INCLUDE\XSTRING
D:\VS14\VC\INCLUDE\XMEMORY0
D:\VS14\VC\INCLUDE\CSTDINT
D:\VS14\VC\INCLUDE\STDINT.H
D:\VS14\VC\INCLUDE\LIMITS
D:\VS14\VC\INCLUDE\YMATH.H
D:\VS14\VC\INCLUDE\CFLOAT
C:\PROGRAM FILES (X86)\WINDOWS KITS\10\INCLUDE\10.0.10240.0\UCRT\FLOAT.H
D:\VS14\VC\INCLUDE\CWCHAR
C:\PROGRAM FILES (X86)\WINDOWS KITS\10\INCLUDE\10.0.10240.0\UCRT\WCHAR.H
C:\PROGRAM FILES (X86)\WINDOWS KITS\10\INCLUDE\10.0.10240.0\UCRT\CORECRT_WCONIO.H
C:\PROGRAM FILES (X86)\WINDOWS KITS\10\INCLUDE\10.0.10240.0\UCRT\CORECRT_WCTYPE.H
C:\PROGRAM FILES (X86)\WINDOWS KITS\10\INCLUDE\10.0.10240.0\UCRT\CORECRT_WDIRECT.H
C:\PROGRAM FILES (X86)\WINDOWS KITS\10\INCLUDE\10.0.10240.0\UCRT\CORECRT_WIO.H
C:\PROGRAM FILES (X86)\WINDOWS KITS\10\INCLUDE\10.0.10240.0\UCRT\CORECRT_SHARE.H
C:\PROGRAM FILES (X86)\WINDOWS KITS\10\INCLUDE\10.0.10240.0\UCRT\CORECRT_WPROCESS.H
C:\PROGRAM FILES (X86)\WINDOWS KITS\10\INCLUDE\10.0.10240.0\UCRT\CORECRT_WTIME.H
C:\PROGRAM FILES (X86)\WINDOWS KITS\10\INCLUDE\10.0.10240.0\UCRT\SYS\STAT.H
C:\PROGRAM FILES (X86)\WINDOWS KITS\10\INCLUDE\10.0.10240.0\UCRT\SYS\TYPES.H
D:\VS14\VC\INCLUDE\NEW
D:\VS14\VC\INCLUDE\VCRUNTIME_NEW.H
D:\VS14\VC\INCLUDE\XUTILITY
D:\VS14\VC\INCLUDE\UTILITY
D:\VS14\VC\INCLUDE\IOSFWD
C:\PROGRAM FILES (X86)\WINDOWS KITS\10\INCLUDE\10.0.10240.0\UCRT\CRTDBG.H
D:\VS14\VC\INCLUDE\VCRUNTIME_NEW_DEBUG.H
D:\VS14\VC\INCLUDE\XATOMIC0.H
D:\VS14\VC\INCLUDE\INTRIN.H
D:\VS14\VC\INCLUDE\SETJMP.H
D:\VS14\VC\INCLUDE\IMMINTRIN.H
D:\VS14\VC\INCLUDE\WMMINTRIN.H
D:\VS14\VC\INCLUDE\NMMINTRIN.H
D:\VS14\VC\INCLUDE\SMMINTRIN.H
D:\VS14\VC\INCLUDE\TMMINTRIN.H
D:\VS14\VC\INCLUDE\PMMINTRIN.H
D:\VS14\VC\INCLUDE\EMMINTRIN.H
D:\VS14\VC\INCLUDE\XMMINTRIN.H
D:\VS14\VC\INCLUDE\MMINTRIN.H
D:\VS14\VC\INCLUDE\AMMINTRIN.H
D:\VS14\VC\INCLUDE\MM3DNOW.H
D:\VS14\VC\INCLUDE\TYPEINFO
D:\VS14\VC\INCLUDE\VCRUNTIME_TYPEINFO.H
D:\VS14\VC\INCLUDE\XLOCINFO
D:\VS14\VC\INCLUDE\XLOCINFO.H
C:\PROGRAM FILES (X86)\WINDOWS KITS\10\INCLUDE\10.0.10240.0\UCRT\CTYPE.H
C:\PROGRAM FILES (X86)\WINDOWS KITS\10\INCLUDE\10.0.10240.0\UCRT\LOCALE.H
D:\VS14\VC\INCLUDE\XFACET
D:\VS14\VC\INCLUDE\SYSTEM_ERROR
D:\VS14\VC\INCLUDE\CERRNO
C:\PROGRAM FILES (X86)\WINDOWS KITS\10\INCLUDE\10.0.10240.0\UCRT\SHARE.H
D:\VS14\VC\INCLUDE\FSTREAM
D:\VS14\VC\INCLUDE\VECTOR
D:\VS14\VC\INCLUDE\XMEMORY
D:\PROJECTS\DN - DEVELOPMENTAL NETWORKS\DEVELOPMENTALNETWORK-GENERAL\DEVELOPMENTALNETWORK\VECTORS.H
D:\VS14\VC\INCLUDE\ALGORITHM
D:\VS14\VC\INCLUDE\SET
D:\VS14\VC\INCLUDE\XTREE
D:\VS14\VC\INCLUDE\MAP
D:\VS14\VC\INCLUDE\TUPLE
D:\PROJECTS\DN - DEVELOPMENTAL NETWORKS\DEVELOPMENTALNETWORK-GENERAL\DEVELOPMENTALNETWORK\NEURON_SAVER.H
C:\PROGRAM FILES (X86)\WINDOWS KITS\10\INCLUDE\10.0.10240.0\UCRT\TIME.H
D:\VS14\VC\INCLUDE\RANDOM
^D:\PROJECTS\DN - DEVELOPMENTAL NETWORKS\DEVELOPMENTALNETWORK-GENERAL\DEVELOPMENTALNETWORK\VOCABULARY.CPP
D:\PROJECTS\DN - DEVELOPMENTAL NETWORKS\DEVELOPMENTALNETWORK-GENERAL\DEVELOPMENTALNETWORK\VOCABULARY.H
D:\VS14\VC\INCLUDE\FSTREAM
D:\VS14\VC\INCLUDE\ISTREAM
D:\VS14\VC\INCLUDE\OSTREAM
D:\VS14\VC\INCLUDE\IOS
D:\VS14\VC\INCLUDE\XLOCNUM
D:\VS14\VC\INCLUDE\CLIMITS
D:\VS14\VC\INCLUDE\YVALS.H
D:\VS14\VC\INCLUDE\XKEYCHECK.H
D:\VS14\VC\INCLUDE\CRTDEFS.H
D:\VS14\VC\INCLUDE\VCRUNTIME.H
D:\VS14\VC\INCLUDE\SAL.H
D:\VS14\VC\INCLUDE\CONCURRENCYSAL.H
D:\VS14\VC\INCLUDE\VADEFS.H
C:\PROGRAM FILES (X86)\WINDOWS KITS\10\INCLUDE\10.0.10240.0\UCRT\CORECRT.H
D:\VS14\VC\INCLUDE\USE_ANSI.H
D:\VS14\VC\INCLUDE\LIMITS.H
D:\VS14\VC\INCLUDE\CMATH
C:\PROGRAM FILES (X86)\WINDOWS KITS\10\INCLUDE\10.0.10240.0\UCRT\MATH.H
D:\VS14\VC\INCLUDE\XTGMATH.H
D:\VS14\VC\INCLUDE\XTR1COMMON
D:\VS14\VC\INCLUDE\CSTDLIB
C:\PROGRAM FILES (X86)\WINDOWS KITS\10\INCLUDE\10.0.10240.0\UCRT\STDLIB.H
C:\PROGRAM FILES (X86)\WINDOWS KITS\10\INCLUDE\10.0.10240.0\UCRT\CORECRT_MALLOC.H
C:\PROGRAM FILES (X86)\WINDOWS KITS\10\INCLUDE\10.0.10240.0\UCRT\CORECRT_SEARCH.H
C:\PROGRAM FILES (X86)\WINDOWS KITS\10\INCLUDE\10.0.10240.0\UCRT\STDDEF.H
C:\PROGRAM FILES (X86)\WINDOWS KITS\10\INCLUDE\10.0.10240.0\UCRT\CORECRT_WSTDLIB.H
D:\VS14\VC\INCLUDE\CSTDIO
C:\PROGRAM FILES (X86)\WINDOWS KITS\10\INCLUDE\10.0.10240.0\UCRT\STDIO.H
C:\PROGRAM FILES (X86)\WINDOWS KITS\10\INCLUDE\10.0.10240.0\UCRT\CORECRT_WSTDIO.H
C:\PROGRAM FILES (X86)\WINDOWS KITS\10\INCLUDE\10.0.10240.0\UCRT\CORECRT_STDIO_CONFIG.H
D:\VS14\VC\INCLUDE\STREAMBUF
D:\VS14\VC\INCLUDE\XIOSBASE
D:\VS14\VC\INCLUDE\XLOCALE
D:\VS14\VC\INCLUDE\CSTRING
C:\PROGRAM FILES (X86)\WINDOWS KITS\10\INCLUDE\10.0.10240.0\UCRT\STRING.H
C:\PROGRAM FILES (X86)\WINDOWS KITS\10\INCLUDE\10.0.10240.0\UCRT\CORECRT_MEMORY.H
C:\PROGRAM FILES (X86)\WINDOWS KITS\10\INCLUDE\10.0.10240.0\UCRT\CORECRT_MEMCPY_S.H
C:\PROGRAM FILES (X86)\WINDOWS KITS\10\INCLUDE\10.0.10240.0\UCRT\ERRNO.H
D:\VS14\VC\INCLUDE\VCRUNTIME_STRING.H
C:\PROGRAM FILES (X86)\WINDOWS KITS\10\INCLUDE\10.0.10240.0\UCRT\CORECRT_WSTRING.H
D:\VS14\VC\INCLUDE\STDEXCEPT
D:\VS14\VC\INCLUDE\EXCEPTION
D:\VS14\VC\INCLUDE\TYPE_TRAITS
D:\VS14\VC\INCLUDE\XSTDDEF
D:\VS14\VC\INCLUDE\CSTDDEF
D:\VS14\VC\INCLUDE\INITIALIZER_LIST
C:\PROGRAM FILES (X86)\WINDOWS KITS\10\INCLUDE\10.0.10240.0\UCRT\MALLOC.H
D:\VS14\VC\INCLUDE\VCRUNTIME_EXCEPTION.H
D:\VS14\VC\INCLUDE\EH.H
C:\PROGRAM FILES (X86)\WINDOWS KITS\10\INCLUDE\10.0.10240.0\UCRT\CORECRT_TERMINATE.H
D:\VS14\VC\INCLUDE\XSTRING
D:\VS14\VC\INCLUDE\XMEMORY0
D:\VS14\VC\INCLUDE\CSTDINT
D:\VS14\VC\INCLUDE\STDINT.H
D:\VS14\VC\INCLUDE\LIMITS
D:\VS14\VC\INCLUDE\YMATH.H
D:\VS14\VC\INCLUDE\CFLOAT
C:\PROGRAM FILES (X86)\WINDOWS KITS\10\INCLUDE\10.0.10240.0\UCRT\FLOAT.H
D:\VS14\VC\INCLUDE\CWCHAR
C:\PROGRAM FILES (X86)\WINDOWS KITS\10\INCLUDE\10.0.10240.0\UCRT\WCHAR.H
C:\PROGRAM FILES (X86)\WINDOWS KITS\10\INCLUDE\10.0.10240.0\UCRT\CORECRT_WCONIO.H
C:\PROGRAM FILES (X86)\WINDOWS KITS\10\INCLUDE\10.0.10240.0\UCRT\CORECRT_WCTYPE.H
C:\PROGRAM FILES (X86)\WINDOWS KITS\10\INCLUDE\10.0.10240.0\UCRT\CORECRT_WDIRECT.H
C:\PROGRAM FILES (X86)\WINDOWS KITS\10\INCLUDE\10.0.10240.0\UCRT\CORECRT_WIO.H
C:\PROGRAM FILES (X86)\WINDOWS KITS\10\INCLUDE\10.0.10240.0\UCRT\CORECRT_SHARE.H
C:\PROGRAM FILES (X86)\WINDOWS KITS\10\INCLUDE\10.0.10240.0\UCRT\CORECRT_WPROCESS.H
C:\PROGRAM FILES (X86)\WINDOWS KITS\10\INCLUDE\10.0.10240.0\UCRT\CORECRT_WTIME.H
C:\PROGRAM FILES (X86)\WINDOWS KITS\10\INCLUDE\10.0.10240.0\UCRT\SYS\STAT.H
C:\PROGRAM FILES (X86)\WINDOWS KITS\10\INCLUDE\10.0.10240.0\UCRT\SYS\TYPES.H
D:\VS14\VC\INCLUDE\NEW
D:\VS14\VC\INCLUDE\VCRUNTIME_NEW.H
D:\VS14\VC\INCLUDE\XUTILITY
D:\VS14\VC\INCLUDE\UTILITY
D:\VS14\VC\INCLUDE\IOSFWD
C:\PROGRAM FILES (X86)\WINDOWS KITS\10\INCLUDE\10.0.10240.0\UCRT\CRTDBG.H
D:\VS14\VC\INCLUDE\VCRUNTIME_NEW_DEBUG.H
D:\VS14\VC\INCLUDE\XATOMIC0.H
D:\VS14\VC\INCLUDE\INTRIN.H
D:\VS14\VC\INCLUDE\SETJMP.H
D:\VS14\VC\INCLUDE\IMMINTRIN.H
D:\VS14\VC\INCLUDE\WMMINTRIN.H
D:\VS14\VC\INCLUDE\NMMINTRIN.H
D:\VS14\VC\INCLUDE\SMMINTRIN.H
D:\VS14\VC\INCLUDE\TMMINTRIN.H
D:\VS14\VC\INCLUDE\PMMINTRIN.H
D:\VS14\VC\INCLUDE\EMMINTRIN.H
D:\VS14\VC\INCLUDE\XMMINTRIN.H
D:\VS14\VC\INCLUDE\MMINTRIN.H
D:\VS14\VC\INCLUDE\AMMINTRIN.H
D:\VS14\VC\INCLUDE\MM3DNOW.H
D:\VS14\VC\INCLUDE\TYPEINFO
D:\VS14\VC\INCLUDE\VCRUNTIME_TYPEINFO.H
D:\VS14\VC\INCLUDE\XLOCINFO
D:\VS14\VC\INCLUDE\XLOCINFO.H
C:\PROGRAM FILES (X86)\WINDOWS KITS\10\INCLUDE\10.0.10240.0\UCRT\CTYPE.H
C:\PROGRAM FILES (X86)\WINDOWS KITS\10\INCLUDE\10.0.10240.0\UCRT\LOCALE.H
D:\VS14\VC\INCLUDE\XFACET
D:\VS14\VC\INCLUDE\SYSTEM_ERROR
D:\VS14\VC\INCLUDE\CERRNO
C:\PROGRAM FILES (X86)\WINDOWS KITS\10\INCLUDE\10.0.10240.0\UCRT\SHARE.H
D:\VS14\VC\INCLUDE\STRING
^D:\PROJECTS\DN - DEVELOPMENTAL NETWORKS\DEVELOPMENTALNETWORK-GENERAL\DEVELOPMENTALNETWORK\VECTORS.CPP
D:\PROJECTS\DN - DEVELOPMENTAL NETWORKS\DEVELOPMENTALNETWORK-GENERAL\DEVELOPMENTALNETWORK\VECTORS.H
D:\VS14\VC\INCLUDE\CMATH
D:\VS14\VC\INCLUDE\YVALS.H
D:\VS14\VC\INCLUDE\XKEYCHECK.H
D:\VS14\VC\INCLUDE\CRTDEFS.H
D:\VS14\VC\INCLUDE\VCRUNTIME.H
D:\VS14\VC\INCLUDE\SAL.H
D:\VS14\VC\INCLUDE\CONCURRENCYSAL.H
D:\VS14\VC\INCLUDE\VADEFS.H
C:\PROGRAM FILES (X86)\WINDOWS KITS\10\INCLUDE\10.0.10240.0\UCRT\CORECRT.H
D:\VS14\VC\INCLUDE\USE_ANSI.H
C:\PROGRAM FILES (X86)\WINDOWS KITS\10\INCLUDE\10.0.10240.0\UCRT\MATH.H
D:\VS14\VC\INCLUDE\XTGMATH.H
D:\VS14\VC\INCLUDE\XTR1COMMON
D:\VS14\VC\INCLUDE\CSTDLIB
C:\PROGRAM FILES (X86)\WINDOWS KITS\10\INCLUDE\10.0.10240.0\UCRT\STDLIB.H
C:\PROGRAM FILES (X86)\WINDOWS KITS\10\INCLUDE\10.0.10240.0\UCRT\CORECRT_MALLOC.H
C:\PROGRAM FILES (X86)\WINDOWS KITS\10\INCLUDE\10.0.10240.0\UCRT\CORECRT_SEARCH.H
C:\PROGRAM FILES (X86)\WINDOWS KITS\10\INCLUDE\10.0.10240.0\UCRT\STDDEF.H
C:\PROGRAM FILES (X86)\WINDOWS KITS\10\INCLUDE\10.0.10240.0\UCRT\CORECRT_WSTDLIB.H
D:\VS14\VC\INCLUDE\LIMITS.H
D:\VS14\VC\INCLUDE\CFLOAT
C:\PROGRAM FILES (X86)\WINDOWS KITS\10\INCLUDE\10.0.10240.0\UCRT\FLOAT.H
C:\PROGRAM FILES (X86)\WINDOWS KITS\10\INCLUDE\10.0.10240.0\UCRT\STDIO.H
C:\PROGRAM FILES (X86)\WINDOWS KITS\10\INCLUDE\10.0.10240.0\UCRT\CORECRT_WSTDIO.H
C:\PROGRAM FILES (X86)\WINDOWS KITS\10\INCLUDE\10.0.10240.0\UCRT\CORECRT_STDIO_CONFIG.H
^D:\PROJECTS\DN - DEVELOPMENTAL NETWORKS\DEVELOPMENTALNETWORK-GENERAL\DEVELOPMENTALNETWORK\OPENCV_TEST.CPP
D:\PROJECTS\DN - DEVELOPMENTAL NETWORKS\DEVELOPMENTALNETWORK-GENERAL\OPENCV\OPENCV\BUILD\INCLUDE\OPENCV2\CORE.HPP
D:\PROJECTS\DN - DEVELOPMENTAL NETWORKS\DEVELOPMENTALNETWORK-GENERAL\OPENCV\OPENCV\BUILD\INCLUDE\OPENCV2\CORE\CVDEF.H
D:\VS14\VC\INCLUDE\LIMITS.H
D:\VS14\VC\INCLUDE\VCRUNTIME.H
D:\VS14\VC\INCLUDE\SAL.H
D:\VS14\VC\INCLUDE\CONCURRENCYSAL.H
D:\VS14\VC\INCLUDE\VADEFS.H
D:\PROJECTS\DN - DEVELOPMENTAL NETWORKS\DEVELOPMENTALNETWORK-GENERAL\OPENCV\OPENCV\BUILD\INCLUDE\OPENCV2\CORE\HAL\INTERFACE.H
D:\VS14\VC\INCLUDE\CSTDDEF
D:\VS14\VC\INCLUDE\YVALS.H
D:\VS14\VC\INCLUDE\XKEYCHECK.H
D:\VS14\VC\INCLUDE\CRTDEFS.H
C:\PROGRAM FILES (X86)\WINDOWS KITS\10\INCLUDE\10.0.10240.0\UCRT\CORECRT.H
D:\VS14\VC\INCLUDE\USE_ANSI.H
C:\PROGRAM FILES (X86)\WINDOWS KITS\10\INCLUDE\10.0.10240.0\UCRT\STDDEF.H
D:\PROJECTS\DN - DEVELOPMENTAL NETWORKS\DEVELOPMENTALNETWORK-GENERAL\OPENCV\OPENCV\BUILD\INCLUDE\OPENCV2\CORE\CV_CPU_DISPATCH.H
D:\VS14\VC\INCLUDE\EMMINTRIN.H
D:\VS14\VC\INCLUDE\XMMINTRIN.H
D:\VS14\VC\INCLUDE\MMINTRIN.H
C:\PROGRAM FILES (X86)\WINDOWS KITS\10\INCLUDE\10.0.10240.0\UCRT\MALLOC.H
C:\PROGRAM FILES (X86)\WINDOWS KITS\10\INCLUDE\10.0.10240.0\UCRT\CORECRT_MALLOC.H
D:\VS14\VC\INCLUDE\INTRIN.H
D:\VS14\VC\INCLUDE\SETJMP.H
D:\VS14\VC\INCLUDE\IMMINTRIN.H
D:\VS14\VC\INCLUDE\WMMINTRIN.H
D:\VS14\VC\INCLUDE\NMMINTRIN.H
D:\VS14\VC\INCLUDE\SMMINTRIN.H
D:\VS14\VC\INCLUDE\TMMINTRIN.H
D:\VS14\VC\INCLUDE\PMMINTRIN.H
D:\VS14\VC\INCLUDE\AMMINTRIN.H
D:\VS14\VC\INCLUDE\MM3DNOW.H
D:\PROJECTS\DN - DEVELOPMENTAL NETWORKS\DEVELOPMENTALNETWORK-GENERAL\OPENCV\OPENCV\BUILD\INCLUDE\OPENCV2\CORE\VERSION.HPP
D:\PROJECTS\DN - DEVELOPMENTAL NETWORKS\DEVELOPMENTALNETWORK-GENERAL\OPENCV\OPENCV\BUILD\INCLUDE\OPENCV2\CORE\BASE.HPP
D:\PROJECTS\DN - DEVELOPMENTAL NETWORKS\DEVELOPMENTALNETWORK-GENERAL\OPENCV\OPENCV\BUILD\INCLUDE\OPENCV2\OPENCV_MODULES.HPP
D:\VS14\VC\INCLUDE\CLIMITS
D:\VS14\VC\INCLUDE\ALGORITHM
D:\VS14\VC\INCLUDE\XMEMORY
D:\VS14\VC\INCLUDE\XMEMORY0
D:\VS14\VC\INCLUDE\CSTDINT
D:\VS14\VC\INCLUDE\STDINT.H
D:\VS14\VC\INCLUDE\CSTDLIB
C:\PROGRAM FILES (X86)\WINDOWS KITS\10\INCLUDE\10.0.10240.0\UCRT\STDLIB.H
C:\PROGRAM FILES (X86)\WINDOWS KITS\10\INCLUDE\10.0.10240.0\UCRT\CORECRT_SEARCH.H
C:\PROGRAM FILES (X86)\WINDOWS KITS\10\INCLUDE\10.0.10240.0\UCRT\CORECRT_WSTDLIB.H
D:\VS14\VC\INCLUDE\LIMITS
D:\VS14\VC\INCLUDE\YMATH.H
D:\VS14\VC\INCLUDE\CFLOAT
C:\PROGRAM FILES (X86)\WINDOWS KITS\10\INCLUDE\10.0.10240.0\UCRT\FLOAT.H
D:\VS14\VC\INCLUDE\CMATH
C:\PROGRAM FILES (X86)\WINDOWS KITS\10\INCLUDE\10.0.10240.0\UCRT\MATH.H
D:\VS14\VC\INCLUDE\XTGMATH.H
D:\VS14\VC\INCLUDE\XTR1COMMON
D:\VS14\VC\INCLUDE\CWCHAR
C:\PROGRAM FILES (X86)\WINDOWS KITS\10\INCLUDE\10.0.10240.0\UCRT\WCHAR.H
C:\PROGRAM FILES (X86)\WINDOWS KITS\10\INCLUDE\10.0.10240.0\UCRT\CORECRT_MEMCPY_S.H
C:\PROGRAM FILES (X86)\WINDOWS KITS\10\INCLUDE\10.0.10240.0\UCRT\ERRNO.H
D:\VS14\VC\INCLUDE\VCRUNTIME_STRING.H
C:\PROGRAM FILES (X86)\WINDOWS KITS\10\INCLUDE\10.0.10240.0\UCRT\CORECRT_WCONIO.H
C:\PROGRAM FILES (X86)\WINDOWS KITS\10\INCLUDE\10.0.10240.0\UCRT\CORECRT_STDIO_CONFIG.H
C:\PROGRAM FILES (X86)\WINDOWS KITS\10\INCLUDE\10.0.10240.0\UCRT\CORECRT_WCTYPE.H
C:\PROGRAM FILES (X86)\WINDOWS KITS\10\INCLUDE\10.0.10240.0\UCRT\CORECRT_WDIRECT.H
C:\PROGRAM FILES (X86)\WINDOWS KITS\10\INCLUDE\10.0.10240.0\UCRT\CORECRT_WIO.H
C:\PROGRAM FILES (X86)\WINDOWS KITS\10\INCLUDE\10.0.10240.0\UCRT\CORECRT_SHARE.H
C:\PROGRAM FILES (X86)\WINDOWS KITS\10\INCLUDE\10.0.10240.0\UCRT\CORECRT_WPROCESS.H
C:\PROGRAM FILES (X86)\WINDOWS KITS\10\INCLUDE\10.0.10240.0\UCRT\CORECRT_WSTDIO.H
C:\PROGRAM FILES (X86)\WINDOWS KITS\10\INCLUDE\10.0.10240.0\UCRT\CORECRT_WSTRING.H
C:\PROGRAM FILES (X86)\WINDOWS KITS\10\INCLUDE\10.0.10240.0\UCRT\CORECRT_WTIME.H
C:\PROGRAM FILES (X86)\WINDOWS KITS\10\INCLUDE\10.0.10240.0\UCRT\SYS\STAT.H
C:\PROGRAM FILES (X86)\WINDOWS KITS\10\INCLUDE\10.0.10240.0\UCRT\SYS\TYPES.H
D:\VS14\VC\INCLUDE\XSTDDEF
D:\VS14\VC\INCLUDE\INITIALIZER_LIST
D:\VS14\VC\INCLUDE\NEW
D:\VS14\VC\INCLUDE\EXCEPTION
D:\VS14\VC\INCLUDE\TYPE_TRAITS
D:\VS14\VC\INCLUDE\VCRUNTIME_EXCEPTION.H
D:\VS14\VC\INCLUDE\EH.H
C:\PROGRAM FILES (X86)\WINDOWS KITS\10\INCLUDE\10.0.10240.0\UCRT\CORECRT_TERMINATE.H
D:\VS14\VC\INCLUDE\VCRUNTIME_NEW.H
D:\VS14\VC\INCLUDE\XUTILITY
D:\VS14\VC\INCLUDE\UTILITY
D:\VS14\VC\INCLUDE\IOSFWD
D:\VS14\VC\INCLUDE\CSTDIO
C:\PROGRAM FILES (X86)\WINDOWS KITS\10\INCLUDE\10.0.10240.0\UCRT\STDIO.H
D:\VS14\VC\INCLUDE\CSTRING
C:\PROGRAM FILES (X86)\WINDOWS KITS\10\INCLUDE\10.0.10240.0\UCRT\STRING.H
C:\PROGRAM FILES (X86)\WINDOWS KITS\10\INCLUDE\10.0.10240.0\UCRT\CORECRT_MEMORY.H
C:\PROGRAM FILES (X86)\WINDOWS KITS\10\INCLUDE\10.0.10240.0\UCRT\CRTDBG.H
D:\VS14\VC\INCLUDE\VCRUNTIME_NEW_DEBUG.H
D:\VS14\VC\INCLUDE\XATOMIC0.H
D:\PROJECTS\DN - DEVELOPMENTAL NETWORKS\DEVELOPMENTALNETWORK-GENERAL\OPENCV\OPENCV\BUILD\INCLUDE\OPENCV2\CORE\CVSTD.HPP
D:\VS14\VC\INCLUDE\CCTYPE
C:\PROGRAM FILES (X86)\WINDOWS KITS\10\INCLUDE\10.0.10240.0\UCRT\CTYPE.H
D:\VS14\VC\INCLUDE\STRING
D:\VS14\VC\INCLUDE\ISTREAM
D:\VS14\VC\INCLUDE\OSTREAM
D:\VS14\VC\INCLUDE\IOS
D:\VS14\VC\INCLUDE\XLOCNUM
D:\VS14\VC\INCLUDE\STREAMBUF
D:\VS14\VC\INCLUDE\XIOSBASE
D:\VS14\VC\INCLUDE\XLOCALE
D:\VS14\VC\INCLUDE\STDEXCEPT
D:\VS14\VC\INCLUDE\XSTRING
D:\VS14\VC\INCLUDE\TYPEINFO
D:\VS14\VC\INCLUDE\VCRUNTIME_TYPEINFO.H
D:\VS14\VC\INCLUDE\XLOCINFO
D:\VS14\VC\INCLUDE\XLOCINFO.H
C:\PROGRAM FILES (X86)\WINDOWS KITS\10\INCLUDE\10.0.10240.0\UCRT\LOCALE.H
D:\VS14\VC\INCLUDE\XFACET
D:\VS14\VC\INCLUDE\SYSTEM_ERROR
D:\VS14\VC\INCLUDE\CERRNO
C:\PROGRAM FILES (X86)\WINDOWS KITS\10\INCLUDE\10.0.10240.0\UCRT\SHARE.H
D:\PROJECTS\DN - DEVELOPMENTAL NETWORKS\DEVELOPMENTALNETWORK-GENERAL\OPENCV\OPENCV\BUILD\INCLUDE\OPENCV2\CORE\PTR.INL.HPP
D:\PROJECTS\DN - DEVELOPMENTAL NETWORKS\DEVELOPMENTALNETWORK-GENERAL\OPENCV\OPENCV\BUILD\INCLUDE\OPENCV2\CORE\NEON_UTILS.HPP
D:\PROJECTS\DN - DEVELOPMENTAL NETWORKS\DEVELOPMENTALNETWORK-GENERAL\OPENCV\OPENCV\BUILD\INCLUDE\OPENCV2\CORE\VSX_UTILS.HPP
D:\PROJECTS\DN - DEVELOPMENTAL NETWORKS\DEVELOPMENTALNETWORK-GENERAL\OPENCV\OPENCV\BUILD\INCLUDE\OPENCV2\CORE\TRAITS.HPP
D:\PROJECTS\DN - DEVELOPMENTAL NETWORKS\DEVELOPMENTALNETWORK-GENERAL\OPENCV\OPENCV\BUILD\INCLUDE\OPENCV2\CORE\MATX.HPP
D:\PROJECTS\DN - DEVELOPMENTAL NETWORKS\DEVELOPMENTALNETWORK-GENERAL\OPENCV\OPENCV\BUILD\INCLUDE\OPENCV2\CORE\SATURATE.HPP
D:\PROJECTS\DN - DEVELOPMENTAL NETWORKS\DEVELOPMENTALNETWORK-GENERAL\OPENCV\OPENCV\BUILD\INCLUDE\OPENCV2\CORE\FAST_MATH.HPP
D:\PROJECTS\DN - DEVELOPMENTAL NETWORKS\DEVELOPMENTALNETWORK-GENERAL\OPENCV\OPENCV\BUILD\INCLUDE\OPENCV2\CORE\TYPES.HPP
D:\VS14\VC\INCLUDE\VECTOR
D:\PROJECTS\DN - DEVELOPMENTAL NETWORKS\DEVELOPMENTALNETWORK-GENERAL\OPENCV\OPENCV\BUILD\INCLUDE\OPENCV2\CORE\MAT.HPP
D:\PROJECTS\DN - DEVELOPMENTAL NETWORKS\DEVELOPMENTALNETWORK-GENERAL\OPENCV\OPENCV\BUILD\INCLUDE\OPENCV2\CORE\BUFFERPOOL.HPP
D:\PROJECTS\DN - DEVELOPMENTAL NETWORKS\DEVELOPMENTALNETWORK-GENERAL\OPENCV\OPENCV\BUILD\INCLUDE\OPENCV2\CORE\MAT.INL.HPP
D:\PROJECTS\DN - DEVELOPMENTAL NETWORKS\DEVELOPMENTALNETWORK-GENERAL\OPENCV\OPENCV\BUILD\INCLUDE\OPENCV2\CORE\PERSISTENCE.HPP
D:\PROJECTS\DN - DEVELOPMENTAL NETWORKS\DEVELOPMENTALNETWORK-GENERAL\OPENCV\OPENCV\BUILD\INCLUDE\OPENCV2\CORE\OPERATIONS.HPP
D:\PROJECTS\DN - DEVELOPMENTAL NETWORKS\DEVELOPMENTALNETWORK-GENERAL\OPENCV\OPENCV\BUILD\INCLUDE\OPENCV2\CORE\CVSTD.INL.HPP
D:\VS14\VC\INCLUDE\COMPLEX
D:\VS14\VC\INCLUDE\CCOMPLEX
D:\VS14\VC\INCLUDE\SSTREAM
D:\VS14\VC\INCLUDE\XCOMPLEX
D:\PROJECTS\DN - DEVELOPMENTAL NETWORKS\DEVELOPMENTALNETWORK-GENERAL\OPENCV\OPENCV\BUILD\INCLUDE\OPENCV2\CORE\UTILITY.HPP
D:\VS14\VC\INCLUDE\FUNCTIONAL
D:\VS14\VC\INCLUDE\XFUNCTIONAL
D:\VS14\VC\INCLUDE\TUPLE
D:\PROJECTS\DN - DEVELOPMENTAL NETWORKS\DEVELOPMENTALNETWORK-GENERAL\OPENCV\OPENCV\BUILD\INCLUDE\OPENCV2\CORE\CORE_C.H
D:\PROJECTS\DN - DEVELOPMENTAL NETWORKS\DEVELOPMENTALNETWORK-GENERAL\OPENCV\OPENCV\BUILD\INCLUDE\OPENCV2\CORE\TYPES_C.H
C:\PROGRAM FILES (X86)\WINDOWS KITS\10\INCLUDE\10.0.10240.0\UCRT\ASSERT.H
D:\PROJECTS\DN - DEVELOPMENTAL NETWORKS\DEVELOPMENTALNETWORK-GENERAL\OPENCV\OPENCV\BUILD\INCLUDE\OPENCV2\CORE\OPTIM.HPP
D:\PROJECTS\DN - DEVELOPMENTAL NETWORKS\DEVELOPMENTALNETWORK-GENERAL\OPENCV\OPENCV\BUILD\INCLUDE\OPENCV2\CORE\OVX.HPP
D:\PROJECTS\DN - DEVELOPMENTAL NETWORKS\DEVELOPMENTALNETWORK-GENERAL\OPENCV\OPENCV\BUILD\INCLUDE\OPENCV2\IMGCODECS.HPP
D:\PROJECTS\DN - DEVELOPMENTAL NETWORKS\DEVELOPMENTALNETWORK-GENERAL\OPENCV\OPENCV\BUILD\INCLUDE\OPENCV2\HIGHGUI.HPP
D:\PROJECTS\DN - DEVELOPMENTAL NETWORKS\DEVELOPMENTALNETWORK-GENERAL\OPENCV\OPENCV\BUILD\INCLUDE\OPENCV2\VIDEOIO.HPP
D:\PROJECTS\DN - DEVELOPMENTAL NETWORKS\DEVELOPMENTALNETWORK-GENERAL\OPENCV\OPENCV\BUILD\INCLUDE\OPENCV2\HIGHGUI\HIGHGUI_C.H
D:\PROJECTS\DN - DEVELOPMENTAL NETWORKS\DEVELOPMENTALNETWORK-GENERAL\OPENCV\OPENCV\BUILD\INCLUDE\OPENCV2\IMGPROC\IMGPROC_C.H
D:\PROJECTS\DN - DEVELOPMENTAL NETWORKS\DEVELOPMENTALNETWORK-GENERAL\OPENCV\OPENCV\BUILD\INCLUDE\OPENCV2\IMGPROC\TYPES_C.H
D:\PROJECTS\DN - DEVELOPMENTAL NETWORKS\DEVELOPMENTALNETWORK-GENERAL\OPENCV\OPENCV\BUILD\INCLUDE\OPENCV2\IMGCODECS\IMGCODECS_C.H
D:\PROJECTS\DN - DEVELOPMENTAL NETWORKS\DEVELOPMENTALNETWORK-GENERAL\OPENCV\OPENCV\BUILD\INCLUDE\OPENCV2\VIDEOIO\VIDEOIO_C.H
D:\VS14\VC\INCLUDE\IOSTREAM
^D:\PROJECTS\DN - DEVELOPMENTAL NETWORKS\DEVELOPMENTALNETWORK-GENERAL\DEVELOPMENTALNETWORK\NEURON_SAVER.CPP
D:\PROJECTS\DN - DEVELOPMENTAL NETWORKS\DEVELOPMENTALNETWORK-GENERAL\DEVELOPMENTALNETWORK\NEURON_SAVER.H
D:\PROJECTS\DN - DEVELOPMENTAL NETWORKS\DEVELOPMENTALNETWORK-GENERAL\DEVELOPMENTALNETWORK\VECTORS.H
D:\VS14\VC\INCLUDE\FSTREAM
D:\VS14\VC\INCLUDE\ISTREAM
D:\VS14\VC\INCLUDE\OSTREAM
D:\VS14\VC\INCLUDE\IOS
D:\VS14\VC\INCLUDE\XLOCNUM
D:\VS14\VC\INCLUDE\CLIMITS
D:\VS14\VC\INCLUDE\YVALS.H
D:\VS14\VC\INCLUDE\XKEYCHECK.H
D:\VS14\VC\INCLUDE\CRTDEFS.H
D:\VS14\VC\INCLUDE\VCRUNTIME.H
D:\VS14\VC\INCLUDE\SAL.H
D:\VS14\VC\INCLUDE\CONCURRENCYSAL.H
D:\VS14\VC\INCLUDE\VADEFS.H
C:\PROGRAM FILES (X86)\WINDOWS KITS\10\INCLUDE\10.0.10240.0\UCRT\CORECRT.H
D:\VS14\VC\INCLUDE\USE_ANSI.H
D:\VS14\VC\INCLUDE\LIMITS.H
D:\VS14\VC\INCLUDE\CMATH
C:\PROGRAM FILES (X86)\WINDOWS KITS\10\INCLUDE\10.0.10240.0\UCRT\MATH.H
D:\VS14\VC\INCLUDE\XTGMATH.H
D:\VS14\VC\INCLUDE\XTR1COMMON
D:\VS14\VC\INCLUDE\CSTDLIB
C:\PROGRAM FILES (X86)\WINDOWS KITS\10\INCLUDE\10.0.10240.0\UCRT\STDLIB.H
C:\PROGRAM FILES (X86)\WINDOWS KITS\10\INCLUDE\10.0.10240.0\UCRT\CORECRT_MALLOC.H
C:\PROGRAM FILES (X86)\WINDOWS KITS\10\INCLUDE\10.0.10240.0\UCRT\CORECRT_SEARCH.H
C:\PROGRAM FILES (X86)\WINDOWS KITS\10\INCLUDE\10.0.10240.0\UCRT\STDDEF.H
C:\PROGRAM FILES (X86)\WINDOWS KITS\10\INCLUDE\10.0.10240.0\UCRT\CORECRT_WSTDLIB.H
D:\VS14\VC\INCLUDE\CSTDIO
C:\PROGRAM FILES (X86)\WINDOWS KITS\10\INCLUDE\10.0.10240.0\UCRT\STDIO.H
C:\PROGRAM FILES (X86)\WINDOWS KITS\10\INCLUDE\10.0.10240.0\UCRT\CORECRT_WSTDIO.H
C:\PROGRAM FILES (X86)\WINDOWS KITS\10\INCLUDE\10.0.10240.0\UCRT\CORECRT_STDIO_CONFIG.H
D:\VS14\VC\INCLUDE\STREAMBUF
D:\VS14\VC\INCLUDE\XIOSBASE
D:\VS14\VC\INCLUDE\XLOCALE
D:\VS14\VC\INCLUDE\CSTRING
C:\PROGRAM FILES (X86)\WINDOWS KITS\10\INCLUDE\10.0.10240.0\UCRT\STRING.H
C:\PROGRAM FILES (X86)\WINDOWS KITS\10\INCLUDE\10.0.10240.0\UCRT\CORECRT_MEMORY.H
C:\PROGRAM FILES (X86)\WINDOWS KITS\10\INCLUDE\10.0.10240.0\UCRT\CORECRT_MEMCPY_S.H
C:\PROGRAM FILES (X86)\WINDOWS KITS\10\INCLUDE\10.0.10240.0\UCRT\ERRNO.H
D:\VS14\VC\INCLUDE\VCRUNTIME_STRING.H
C:\PROGRAM FILES (X86)\WINDOWS KITS\10\INCLUDE\10.0.10240.0\UCRT\CORECRT_WSTRING.H
D:\VS14\VC\INCLUDE\STDEXCEPT
D:\VS14\VC\INCLUDE\EXCEPTION
D:\VS14\VC\INCLUDE\TYPE_TRAITS
D:\VS14\VC\INCLUDE\XSTDDEF
D:\VS14\VC\INCLUDE\CSTDDEF
D:\VS14\VC\INCLUDE\INITIALIZER_LIST
C:\PROGRAM FILES (X86)\WINDOWS KITS\10\INCLUDE\10.0.10240.0\UCRT\MALLOC.H
D:\VS14\VC\INCLUDE\VCRUNTIME_EXCEPTION.H
D:\VS14\VC\INCLUDE\EH.H
C:\PROGRAM FILES (X86)\WINDOWS KITS\10\INCLUDE\10.0.10240.0\UCRT\CORECRT_TERMINATE.H
D:\VS14\VC\INCLUDE\XSTRING
D:\VS14\VC\INCLUDE\XMEMORY0
D:\VS14\VC\INCLUDE\CSTDINT
D:\VS14\VC\INCLUDE\STDINT.H
D:\VS14\VC\INCLUDE\LIMITS
D:\VS14\VC\INCLUDE\YMATH.H
D:\VS14\VC\INCLUDE\CFLOAT
C:\PROGRAM FILES (X86)\WINDOWS KITS\10\INCLUDE\10.0.10240.0\UCRT\FLOAT.H
D:\VS14\VC\INCLUDE\CWCHAR
C:\PROGRAM FILES (X86)\WINDOWS KITS\10\INCLUDE\10.0.10240.0\UCRT\WCHAR.H
C:\PROGRAM FILES (X86)\WINDOWS KITS\10\INCLUDE\10.0.10240.0\UCRT\CORECRT_WCONIO.H
C:\PROGRAM FILES (X86)\WINDOWS KITS\10\INCLUDE\10.0.10240.0\UCRT\CORECRT_WCTYPE.H
C:\PROGRAM FILES (X86)\WINDOWS KITS\10\INCLUDE\10.0.10240.0\UCRT\CORECRT_WDIRECT.H
C:\PROGRAM FILES (X86)\WINDOWS KITS\10\INCLUDE\10.0.10240.0\UCRT\CORECRT_WIO.H
C:\PROGRAM FILES (X86)\WINDOWS KITS\10\INCLUDE\10.0.10240.0\UCRT\CORECRT_SHARE.H
C:\PROGRAM FILES (X86)\WINDOWS KITS\10\INCLUDE\10.0.10240.0\UCRT\CORECRT_WPROCESS.H
C:\PROGRAM FILES (X86)\WINDOWS KITS\10\INCLUDE\10.0.10240.0\UCRT\CORECRT_WTIME.H
C:\PROGRAM FILES (X86)\WINDOWS KITS\10\INCLUDE\10.0.10240.0\UCRT\SYS\STAT.H
C:\PROGRAM FILES (X86)\WINDOWS KITS\10\INCLUDE\10.0.10240.0\UCRT\SYS\TYPES.H
D:\VS14\VC\INCLUDE\NEW
D:\VS14\VC\INCLUDE\VCRUNTIME_NEW.H
D:\VS14\VC\INCLUDE\XUTILITY
D:\VS14\VC\INCLUDE\UTILITY
D:\VS14\VC\INCLUDE\IOSFWD
C:\PROGRAM FILES (X86)\WINDOWS KITS\10\INCLUDE\10.0.10240.0\UCRT\CRTDBG.H
D:\VS14\VC\INCLUDE\VCRUNTIME_NEW_DEBUG.H
D:\VS14\VC\INCLUDE\XATOMIC0.H
D:\VS14\VC\INCLUDE\INTRIN.H
D:\VS14\VC\INCLUDE\SETJMP.H
D:\VS14\VC\INCLUDE\IMMINTRIN.H
D:\VS14\VC\INCLUDE\WMMINTRIN.H
D:\VS14\VC\INCLUDE\NMMINTRIN.H
D:\VS14\VC\INCLUDE\SMMINTRIN.H
D:\VS14\VC\INCLUDE\TMMINTRIN.H
D:\VS14\VC\INCLUDE\PMMINTRIN.H
D:\VS14\VC\INCLUDE\EMMINTRIN.H
D:\VS14\VC\INCLUDE\XMMINTRIN.H
D:\VS14\VC\INCLUDE\MMINTRIN.H
D:\VS14\VC\INCLUDE\AMMINTRIN.H
D:\VS14\VC\INCLUDE\MM3DNOW.H
D:\VS14\VC\INCLUDE\TYPEINFO
D:\VS14\VC\INCLUDE\VCRUNTIME_TYPEINFO.H
D:\VS14\VC\INCLUDE\XLOCINFO
D:\VS14\VC\INCLUDE\XLOCINFO.H
C:\PROGRAM FILES (X86)\WINDOWS KITS\10\INCLUDE\10.0.10240.0\UCRT\CTYPE.H
C:\PROGRAM FILES (X86)\WINDOWS KITS\10\INCLUDE\10.0.10240.0\UCRT\LOCALE.H
D:\VS14\VC\INCLUDE\XFACET
D:\VS14\VC\INCLUDE\SYSTEM_ERROR
D:\VS14\VC\INCLUDE\CERRNO
C:\PROGRAM FILES (X86)\WINDOWS KITS\10\INCLUDE\10.0.10240.0\UCRT\SHARE.H
D:\VS14\VC\INCLUDE\IOMANIP
D:\VS14\VC\INCLUDE\XLOCMON
D:\VS14\VC\INCLUDE\XLOCTIME
D:\VS14\VC\INCLUDE\CTIME
C:\PROGRAM FILES (X86)\WINDOWS KITS\10\INCLUDE\10.0.10240.0\UCRT\TIME.H
D:\VS14\VC\INCLUDE\VECTOR
D:\VS14\VC\INCLUDE\XMEMORY
^D:\PROJECTS\DN - DEVELOPMENTAL NETWORKS\DEVELOPMENTALNETWORK-GENERAL\DEVELOPMENTALNETWORK\DN-MAIN.CPP
C:\PROGRAM FILES (X86)\WINDOWS KITS\10\INCLUDE\10.0.10240.0\UCRT\STDIO.H
C:\PROGRAM FILES (X86)\WINDOWS KITS\10\INCLUDE\10.0.10240.0\UCRT\CORECRT.H
D:\VS14\VC\INCLUDE\VCRUNTIME.H
D:\VS14\VC\INCLUDE\SAL.H
D:\VS14\VC\INCLUDE\CONCURRENCYSAL.H
D:\VS14\VC\INCLUDE\VADEFS.H
C:\PROGRAM FILES (X86)\WINDOWS KITS\10\INCLUDE\10.0.10240.0\UCRT\CORECRT_WSTDIO.H
C:\PROGRAM FILES (X86)\WINDOWS KITS\10\INCLUDE\10.0.10240.0\UCRT\CORECRT_STDIO_CONFIG.H
D:\VS14\VC\INCLUDE\FSTREAM
D:\VS14\VC\INCLUDE\ISTREAM
D:\VS14\VC\INCLUDE\OSTREAM
D:\VS14\VC\INCLUDE\IOS
D:\VS14\VC\INCLUDE\XLOCNUM
D:\VS14\VC\INCLUDE\CLIMITS
D:\VS14\VC\INCLUDE\YVALS.H
D:\VS14\VC\INCLUDE\XKEYCHECK.H
D:\VS14\VC\INCLUDE\CRTDEFS.H
D:\VS14\VC\INCLUDE\USE_ANSI.H
D:\VS14\VC\INCLUDE\LIMITS.H
D:\VS14\VC\INCLUDE\CMATH
C:\PROGRAM FILES (X86)\WINDOWS KITS\10\INCLUDE\10.0.10240.0\UCRT\MATH.H
D:\VS14\VC\INCLUDE\XTGMATH.H
D:\VS14\VC\INCLUDE\XTR1COMMON
D:\VS14\VC\INCLUDE\CSTDLIB
C:\PROGRAM FILES (X86)\WINDOWS KITS\10\INCLUDE\10.0.10240.0\UCRT\STDLIB.H
C:\PROGRAM FILES (X86)\WINDOWS KITS\10\INCLUDE\10.0.10240.0\UCRT\CORECRT_MALLOC.H
C:\PROGRAM FILES (X86)\WINDOWS KITS\10\INCLUDE\10.0.10240.0\UCRT\CORECRT_SEARCH.H
C:\PROGRAM FILES (X86)\WINDOWS KITS\10\INCLUDE\10.0.10240.0\UCRT\STDDEF.H
C:\PROGRAM FILES (X86)\WINDOWS KITS\10\INCLUDE\10.0.10240.0\UCRT\CORECRT_WSTDLIB.H
D:\VS14\VC\INCLUDE\CSTDIO
D:\VS14\VC\INCLUDE\STREAMBUF
D:\VS14\VC\INCLUDE\XIOSBASE
D:\VS14\VC\INCLUDE\XLOCALE
D:\VS14\VC\INCLUDE\CSTRING
C:\PROGRAM FILES (X86)\WINDOWS KITS\10\INCLUDE\10.0.10240.0\UCRT\STRING.H
C:\PROGRAM FILES (X86)\WINDOWS KITS\10\INCLUDE\10.0.10240.0\UCRT\CORECRT_MEMORY.H
C:\PROGRAM FILES (X86)\WINDOWS KITS\10\INCLUDE\10.0.10240.0\UCRT\CORECRT_MEMCPY_S.H
C:\PROGRAM FILES (X86)\WINDOWS KITS\10\INCLUDE\10.0.10240.0\UCRT\ERRNO.H
D:\VS14\VC\INCLUDE\VCRUNTIME_STRING.H
C:\PROGRAM FILES (X86)\WINDOWS KITS\10\INCLUDE\10.0.10240.0\UCRT\CORECRT_WSTRING.H
D:\VS14\VC\INCLUDE\STDEXCEPT
D:\VS14\VC\INCLUDE\EXCEPTION
D:\VS14\VC\INCLUDE\TYPE_TRAITS
D:\VS14\VC\INCLUDE\XSTDDEF
D:\VS14\VC\INCLUDE\CSTDDEF
D:\VS14\VC\INCLUDE\INITIALIZER_LIST
C:\PROGRAM FILES (X86)\WINDOWS KITS\10\INCLUDE\10.0.10240.0\UCRT\MALLOC.H
D:\VS14\VC\INCLUDE\VCRUNTIME_EXCEPTION.H
D:\VS14\VC\INCLUDE\EH.H
C:\PROGRAM FILES (X86)\WINDOWS KITS\10\INCLUDE\10.0.10240.0\UCRT\CORECRT_TERMINATE.H
D:\VS14\VC\INCLUDE\XSTRING
D:\VS14\VC\INCLUDE\XMEMORY0
D:\VS14\VC\INCLUDE\CSTDINT
D:\VS14\VC\INCLUDE\STDINT.H
D:\VS14\VC\INCLUDE\LIMITS
D:\VS14\VC\INCLUDE\YMATH.H
D:\VS14\VC\INCLUDE\CFLOAT
C:\PROGRAM FILES (X86)\WINDOWS KITS\10\INCLUDE\10.0.10240.0\UCRT\FLOAT.H
D:\VS14\VC\INCLUDE\CWCHAR
C:\PROGRAM FILES (X86)\WINDOWS KITS\10\INCLUDE\10.0.10240.0\UCRT\WCHAR.H
C:\PROGRAM FILES (X86)\WINDOWS KITS\10\INCLUDE\10.0.10240.0\UCRT\CORECRT_WCONIO.H
C:\PROGRAM FILES (X86)\WINDOWS KITS\10\INCLUDE\10.0.10240.0\UCRT\CORECRT_WCTYPE.H
C:\PROGRAM FILES (X86)\WINDOWS KITS\10\INCLUDE\10.0.10240.0\UCRT\CORECRT_WDIRECT.H
C:\PROGRAM FILES (X86)\WINDOWS KITS\10\INCLUDE\10.0.10240.0\UCRT\CORECRT_WIO.H
C:\PROGRAM FILES (X86)\WINDOWS KITS\10\INCLUDE\10.0.10240.0\UCRT\CORECRT_SHARE.H
C:\PROGRAM FILES (X86)\WINDOWS KITS\10\INCLUDE\10.0.10240.0\UCRT\CORECRT_WPROCESS.H
C:\PROGRAM FILES (X86)\WINDOWS KITS\10\INCLUDE\10.0.10240.0\UCRT\CORECRT_WTIME.H
C:\PROGRAM FILES (X86)\WINDOWS KITS\10\INCLUDE\10.0.10240.0\UCRT\SYS\STAT.H
C:\PROGRAM FILES (X86)\WINDOWS KITS\10\INCLUDE\10.0.10240.0\UCRT\SYS\TYPES.H
D:\VS14\VC\INCLUDE\NEW
D:\VS14\VC\INCLUDE\VCRUNTIME_NEW.H
D:\VS14\VC\INCLUDE\XUTILITY
D:\VS14\VC\INCLUDE\UTILITY
D:\VS14\VC\INCLUDE\IOSFWD
C:\PROGRAM FILES (X86)\WINDOWS KITS\10\INCLUDE\10.0.10240.0\UCRT\CRTDBG.H
D:\VS14\VC\INCLUDE\VCRUNTIME_NEW_DEBUG.H
D:\VS14\VC\INCLUDE\XATOMIC0.H
D:\VS14\VC\INCLUDE\INTRIN.H
D:\VS14\VC\INCLUDE\SETJMP.H
D:\VS14\VC\INCLUDE\IMMINTRIN.H
D:\VS14\VC\INCLUDE\WMMINTRIN.H
D:\VS14\VC\INCLUDE\NMMINTRIN.H
D:\VS14\VC\INCLUDE\SMMINTRIN.H
D:\VS14\VC\INCLUDE\TMMINTRIN.H
D:\VS14\VC\INCLUDE\PMMINTRIN.H
D:\VS14\VC\INCLUDE\EMMINTRIN.H
D:\VS14\VC\INCLUDE\XMMINTRIN.H
D:\VS14\VC\INCLUDE\MMINTRIN.H
D:\VS14\VC\INCLUDE\AMMINTRIN.H
D:\VS14\VC\INCLUDE\MM3DNOW.H
D:\VS14\VC\INCLUDE\TYPEINFO
D:\VS14\VC\INCLUDE\VCRUNTIME_TYPEINFO.H
D:\VS14\VC\INCLUDE\XLOCINFO
D:\VS14\VC\INCLUDE\XLOCINFO.H
C:\PROGRAM FILES (X86)\WINDOWS KITS\10\INCLUDE\10.0.10240.0\UCRT\CTYPE.H
C:\PROGRAM FILES (X86)\WINDOWS KITS\10\INCLUDE\10.0.10240.0\UCRT\LOCALE.H
D:\VS14\VC\INCLUDE\XFACET
D:\VS14\VC\INCLUDE\SYSTEM_ERROR
D:\VS14\VC\INCLUDE\CERRNO
C:\PROGRAM FILES (X86)\WINDOWS KITS\10\INCLUDE\10.0.10240.0\UCRT\SHARE.H
D:\VS14\VC\INCLUDE\IOMANIP
D:\VS14\VC\INCLUDE\XLOCMON
D:\VS14\VC\INCLUDE\XLOCTIME
D:\VS14\VC\INCLUDE\CTIME
C:\PROGRAM FILES (X86)\WINDOWS KITS\10\INCLUDE\10.0.10240.0\UCRT\TIME.H
D:\VS14\VC\INCLUDE\STRING
D:\VS14\VC\INCLUDE\NUMERIC
D:\PROJECTS\DN - DEVELOPMENTAL NETWORKS\DEVELOPMENTALNETWORK-GENERAL\DEVELOPMENTALNETWORK\SETTINGS.H
D:\PROJECTS\DN - DEVELOPMENTAL NETWORKS\DEVELOPMENTALNETWORK-GENERAL\DEVELOPMENTALNETWORK\DEVELOPMENTALNETWORK.H
D:\PROJECTS\DN - DEVELOPMENTAL NETWORKS\DEVELOPMENTALNETWORK-GENERAL\DEVELOPMENTALNETWORK\X_AREA.H
D:\PROJECTS\DN - DEVELOPMENTAL NETWORKS\DEVELOPMENTALNETWORK-GENERAL\DEVELOPMENTALNETWORK\AREA.H
D:\VS14\VC\INCLUDE\IOSTREAM
D:\VS14\VC\INCLUDE\VECTOR
D:\VS14\VC\INCLUDE\XMEMORY
D:\PROJECTS\DN - DEVELOPMENTAL NETWORKS\DEVELOPMENTALNETWORK-GENERAL\DEVELOPMENTALNETWORK\VECTORS.H
D:\VS14\VC\INCLUDE\ALGORITHM
D:\VS14\VC\INCLUDE\SET
D:\VS14\VC\INCLUDE\XTREE
D:\VS14\VC\INCLUDE\MAP
D:\VS14\VC\INCLUDE\TUPLE
D:\PROJECTS\DN - DEVELOPMENTAL NETWORKS\DEVELOPMENTALNETWORK-GENERAL\DEVELOPMENTALNETWORK\Y_AREA.H
D:\PROJECTS\DN - DEVELOPMENTAL NETWORKS\DEVELOPMENTALNETWORK-GENERAL\DEVELOPMENTALNETWORK\Z_AREA.H
D:\PROJECTS\DN - DEVELOPMENTAL NETWORKS\DEVELOPMENTALNETWORK-GENERAL\DEVELOPMENTALNETWORK\VOCABULARY.H
D:\PROJECTS\DN - DEVELOPMENTAL NETWORKS\DEVELOPMENTALNETWORK-GENERAL\DEVELOPMENTALNETWORK\TRANSITIONS.H
^D:\PROJECTS\DN - DEVELOPMENTAL NETWORKS\DEVELOPMENTALNETWORK-GENERAL\DEVELOPMENTALNETWORK\DEVELOPMENTALNETWORK.CPP
D:\PROJECTS\DN - DEVELOPMENTAL NETWORKS\DEVELOPMENTALNETWORK-GENERAL\DEVELOPMENTALNETWORK\DEVELOPMENTALNETWORK.H
D:\PROJECTS\DN - DEVELOPMENTAL NETWORKS\DEVELOPMENTALNETWORK-GENERAL\DEVELOPMENTALNETWORK\X_AREA.H
D:\PROJECTS\DN - DEVELOPMENTAL NETWORKS\DEVELOPMENTALNETWORK-GENERAL\DEVELOPMENTALNETWORK\AREA.H
D:\VS14\VC\INCLUDE\IOSTREAM
D:\VS14\VC\INCLUDE\ISTREAM
D:\VS14\VC\INCLUDE\OSTREAM
D:\VS14\VC\INCLUDE\IOS
D:\VS14\VC\INCLUDE\XLOCNUM
D:\VS14\VC\INCLUDE\CLIMITS
D:\VS14\VC\INCLUDE\YVALS.H
D:\VS14\VC\INCLUDE\XKEYCHECK.H
D:\VS14\VC\INCLUDE\CRTDEFS.H
D:\VS14\VC\INCLUDE\VCRUNTIME.H
D:\VS14\VC\INCLUDE\SAL.H
D:\VS14\VC\INCLUDE\CONCURRENCYSAL.H
D:\VS14\VC\INCLUDE\VADEFS.H
C:\PROGRAM FILES (X86)\WINDOWS KITS\10\INCLUDE\10.0.10240.0\UCRT\CORECRT.H
D:\VS14\VC\INCLUDE\USE_ANSI.H
D:\VS14\VC\INCLUDE\LIMITS.H
D:\VS14\VC\INCLUDE\CMATH
C:\PROGRAM FILES (X86)\WINDOWS KITS\10\INCLUDE\10.0.10240.0\UCRT\MATH.H
D:\VS14\VC\INCLUDE\XTGMATH.H
D:\VS14\VC\INCLUDE\XTR1COMMON
D:\VS14\VC\INCLUDE\CSTDLIB
C:\PROGRAM FILES (X86)\WINDOWS KITS\10\INCLUDE\10.0.10240.0\UCRT\STDLIB.H
C:\PROGRAM FILES (X86)\WINDOWS KITS\10\INCLUDE\10.0.10240.0\UCRT\CORECRT_MALLOC.H
C:\PROGRAM FILES (X86)\WINDOWS KITS\10\INCLUDE\10.0.10240.0\UCRT\CORECRT_SEARCH.H
C:\PROGRAM FILES (X86)\WINDOWS KITS\10\INCLUDE\10.0.10240.0\UCRT\STDDEF.H
C:\PROGRAM FILES (X86)\WINDOWS KITS\10\INCLUDE\10.0.10240.0\UCRT\CORECRT_WSTDLIB.H
D:\VS14\VC\INCLUDE\CSTDIO
C:\PROGRAM FILES (X86)\WINDOWS KITS\10\INCLUDE\10.0.10240.0\UCRT\STDIO.H
C:\PROGRAM FILES (X86)\WINDOWS KITS\10\INCLUDE\10.0.10240.0\UCRT\CORECRT_WSTDIO.H
C:\PROGRAM FILES (X86)\WINDOWS KITS\10\INCLUDE\10.0.10240.0\UCRT\CORECRT_STDIO_CONFIG.H
D:\VS14\VC\INCLUDE\STREAMBUF
D:\VS14\VC\INCLUDE\XIOSBASE
D:\VS14\VC\INCLUDE\XLOCALE
D:\VS14\VC\INCLUDE\CSTRING
C:\PROGRAM FILES (X86)\WINDOWS KITS\10\INCLUDE\10.0.10240.0\UCRT\STRING.H
C:\PROGRAM FILES (X86)\WINDOWS KITS\10\INCLUDE\10.0.10240.0\UCRT\CORECRT_MEMORY.H
C:\PROGRAM FILES (X86)\WINDOWS KITS\10\INCLUDE\10.0.10240.0\UCRT\CORECRT_MEMCPY_S.H
C:\PROGRAM FILES (X86)\WINDOWS KITS\10\INCLUDE\10.0.10240.0\UCRT\ERRNO.H
D:\VS14\VC\INCLUDE\VCRUNTIME_STRING.H
C:\PROGRAM FILES (X86)\WINDOWS KITS\10\INCLUDE\10.0.10240.0\UCRT\CORECRT_WSTRING.H
D:\VS14\VC\INCLUDE\STDEXCEPT
D:\VS14\VC\INCLUDE\EXCEPTION
D:\VS14\VC\INCLUDE\TYPE_TRAITS
D:\VS14\VC\INCLUDE\XSTDDEF
D:\VS14\VC\INCLUDE\CSTDDEF
D:\VS14\VC\INCLUDE\INITIALIZER_LIST
C:\PROGRAM FILES (X86)\WINDOWS KITS\10\INCLUDE\10.0.10240.0\UCRT\MALLOC.H
D:\VS14\VC\INCLUDE\VCRUNTIME_EXCEPTION.H
D:\VS14\VC\INCLUDE\EH.H
C:\PROGRAM FILES (X86)\WINDOWS KITS\10\INCLUDE\10.0.10240.0\UCRT\CORECRT_TERMINATE.H
D:\VS14\VC\INCLUDE\XSTRING
D:\VS14\VC\INCLUDE\XMEMORY0
D:\VS14\VC\INCLUDE\CSTDINT
D:\VS14\VC\INCLUDE\STDINT.H
D:\VS14\VC\INCLUDE\LIMITS
D:\VS14\VC\INCLUDE\YMATH.H
D:\VS14\VC\INCLUDE\CFLOAT
C:\PROGRAM FILES (X86)\WINDOWS KITS\10\INCLUDE\10.0.10240.0\UCRT\FLOAT.H
D:\VS14\VC\INCLUDE\CWCHAR
C:\PROGRAM FILES (X86)\WINDOWS KITS\10\INCLUDE\10.0.10240.0\UCRT\WCHAR.H
C:\PROGRAM FILES (X86)\WINDOWS KITS\10\INCLUDE\10.0.10240.0\UCRT\CORECRT_WCONIO.H
C:\PROGRAM FILES (X86)\WINDOWS KITS\10\INCLUDE\10.0.10240.0\UCRT\CORECRT_WCTYPE.H
C:\PROGRAM FILES (X86)\WINDOWS KITS\10\INCLUDE\10.0.10240.0\UCRT\CORECRT_WDIRECT.H
C:\PROGRAM FILES (X86)\WINDOWS KITS\10\INCLUDE\10.0.10240.0\UCRT\CORECRT_WIO.H
C:\PROGRAM FILES (X86)\WINDOWS KITS\10\INCLUDE\10.0.10240.0\UCRT\CORECRT_SHARE.H
C:\PROGRAM FILES (X86)\WINDOWS KITS\10\INCLUDE\10.0.10240.0\UCRT\CORECRT_WPROCESS.H
C:\PROGRAM FILES (X86)\WINDOWS KITS\10\INCLUDE\10.0.10240.0\UCRT\CORECRT_WTIME.H
C:\PROGRAM FILES (X86)\WINDOWS KITS\10\INCLUDE\10.0.10240.0\UCRT\SYS\STAT.H
C:\PROGRAM FILES (X86)\WINDOWS KITS\10\INCLUDE\10.0.10240.0\UCRT\SYS\TYPES.H
D:\VS14\VC\INCLUDE\NEW
D:\VS14\VC\INCLUDE\VCRUNTIME_NEW.H
D:\VS14\VC\INCLUDE\XUTILITY
D:\VS14\VC\INCLUDE\UTILITY
D:\VS14\VC\INCLUDE\IOSFWD
C:\PROGRAM FILES (X86)\WINDOWS KITS\10\INCLUDE\10.0.10240.0\UCRT\CRTDBG.H
D:\VS14\VC\INCLUDE\VCRUNTIME_NEW_DEBUG.H
D:\VS14\VC\INCLUDE\XATOMIC0.H
D:\VS14\VC\INCLUDE\INTRIN.H
D:\VS14\VC\INCLUDE\SETJMP.H
D:\VS14\VC\INCLUDE\IMMINTRIN.H
D:\VS14\VC\INCLUDE\WMMINTRIN.H
D:\VS14\VC\INCLUDE\NMMINTRIN.H
D:\VS14\VC\INCLUDE\SMMINTRIN.H
D:\VS14\VC\INCLUDE\TMMINTRIN.H
D:\VS14\VC\INCLUDE\PMMINTRIN.H
D:\VS14\VC\INCLUDE\EMMINTRIN.H
D:\VS14\VC\INCLUDE\XMMINTRIN.H
D:\VS14\VC\INCLUDE\MMINTRIN.H
D:\VS14\VC\INCLUDE\AMMINTRIN.H
D:\VS14\VC\INCLUDE\MM3DNOW.H
D:\VS14\VC\INCLUDE\TYPEINFO
D:\VS14\VC\INCLUDE\VCRUNTIME_TYPEINFO.H
D:\VS14\VC\INCLUDE\XLOCINFO
D:\VS14\VC\INCLUDE\XLOCINFO.H
C:\PROGRAM FILES (X86)\WINDOWS KITS\10\INCLUDE\10.0.10240.0\UCRT\CTYPE.H
C:\PROGRAM FILES (X86)\WINDOWS KITS\10\INCLUDE\10.0.10240.0\UCRT\LOCALE.H
D:\VS14\VC\INCLUDE\XFACET
D:\VS14\VC\INCLUDE\SYSTEM_ERROR
D:\VS14\VC\INCLUDE\CERRNO
C:\PROGRAM FILES (X86)\WINDOWS KITS\10\INCLUDE\10.0.10240.0\UCRT\SHARE.H
D:\VS14\VC\INCLUDE\FSTREAM
D:\VS14\VC\INCLUDE\VECTOR
D:\VS14\VC\INCLUDE\XMEMORY
D:\PROJECTS\DN - DEVELOPMENTAL NETWORKS\DEVELOPMENTALNETWORK-GENERAL\DEVELOPMENTALNETWORK\VECTORS.H
D:\VS14\VC\INCLUDE\ALGORITHM
D:\VS14\VC\INCLUDE\SET
D:\VS14\VC\INCLUDE\XTREE
D:\VS14\VC\INCLUDE\MAP
D:\VS14\VC\INCLUDE\TUPLE
D:\PROJECTS\DN - DEVELOPMENTAL NETWORKS\DEVELOPMENTALNETWORK-GENERAL\DEVELOPMENTALNETWORK\Y_AREA.H
D:\PROJECTS\DN - DEVELOPMENTAL NETWORKS\DEVELOPMENTALNETWORK-GENERAL\DEVELOPMENTALNETWORK\Z_AREA.H
^D:\PROJECTS\DN - DEVELOPMENTAL NETWORKS\DEVELOPMENTALNETWORK-GENERAL\DEVELOPMENTALNETWORK\AREA.CPP
D:\PROJECTS\DN - DEVELOPMENTAL NETWORKS\DEVELOPMENTALNETWORK-GENERAL\DEVELOPMENTALNETWORK\AREA.H
D:\VS14\VC\INCLUDE\IOSTREAM
D:\VS14\VC\INCLUDE\ISTREAM
D:\VS14\VC\INCLUDE\OSTREAM
D:\VS14\VC\INCLUDE\IOS
D:\VS14\VC\INCLUDE\XLOCNUM
D:\VS14\VC\INCLUDE\CLIMITS
D:\VS14\VC\INCLUDE\YVALS.H
D:\VS14\VC\INCLUDE\XKEYCHECK.H
D:\VS14\VC\INCLUDE\CRTDEFS.H
D:\VS14\VC\INCLUDE\VCRUNTIME.H
D:\VS14\VC\INCLUDE\SAL.H
D:\VS14\VC\INCLUDE\CONCURRENCYSAL.H
D:\VS14\VC\INCLUDE\VADEFS.H
C:\PROGRAM FILES (X86)\WINDOWS KITS\10\INCLUDE\10.0.10240.0\UCRT\CORECRT.H
D:\VS14\VC\INCLUDE\USE_ANSI.H
D:\VS14\VC\INCLUDE\LIMITS.H
D:\VS14\VC\INCLUDE\CMATH
C:\PROGRAM FILES (X86)\WINDOWS KITS\10\INCLUDE\10.0.10240.0\UCRT\MATH.H
D:\VS14\VC\INCLUDE\XTGMATH.H
D:\VS14\VC\INCLUDE\XTR1COMMON
D:\VS14\VC\INCLUDE\CSTDLIB
C:\PROGRAM FILES (X86)\WINDOWS KITS\10\INCLUDE\10.0.10240.0\UCRT\STDLIB.H
C:\PROGRAM FILES (X86)\WINDOWS KITS\10\INCLUDE\10.0.10240.0\UCRT\CORECRT_MALLOC.H
C:\PROGRAM FILES (X86)\WINDOWS KITS\10\INCLUDE\10.0.10240.0\UCRT\CORECRT_SEARCH.H
C:\PROGRAM FILES (X86)\WINDOWS KITS\10\INCLUDE\10.0.10240.0\UCRT\STDDEF.H
C:\PROGRAM FILES (X86)\WINDOWS KITS\10\INCLUDE\10.0.10240.0\UCRT\CORECRT_WSTDLIB.H
D:\VS14\VC\INCLUDE\CSTDIO
C:\PROGRAM FILES (X86)\WINDOWS KITS\10\INCLUDE\10.0.10240.0\UCRT\STDIO.H
C:\PROGRAM FILES (X86)\WINDOWS KITS\10\INCLUDE\10.0.10240.0\UCRT\CORECRT_WSTDIO.H
C:\PROGRAM FILES (X86)\WINDOWS KITS\10\INCLUDE\10.0.10240.0\UCRT\CORECRT_STDIO_CONFIG.H
D:\VS14\VC\INCLUDE\STREAMBUF
D:\VS14\VC\INCLUDE\XIOSBASE
D:\VS14\VC\INCLUDE\XLOCALE
D:\VS14\VC\INCLUDE\CSTRING
C:\PROGRAM FILES (X86)\WINDOWS KITS\10\INCLUDE\10.0.10240.0\UCRT\STRING.H
C:\PROGRAM FILES (X86)\WINDOWS KITS\10\INCLUDE\10.0.10240.0\UCRT\CORECRT_MEMORY.H
C:\PROGRAM FILES (X86)\WINDOWS KITS\10\INCLUDE\10.0.10240.0\UCRT\CORECRT_MEMCPY_S.H
C:\PROGRAM FILES (X86)\WINDOWS KITS\10\INCLUDE\10.0.10240.0\UCRT\ERRNO.H
D:\VS14\VC\INCLUDE\VCRUNTIME_STRING.H
C:\PROGRAM FILES (X86)\WINDOWS KITS\10\INCLUDE\10.0.10240.0\UCRT\CORECRT_WSTRING.H
D:\VS14\VC\INCLUDE\STDEXCEPT
D:\VS14\VC\INCLUDE\EXCEPTION
D:\VS14\VC\INCLUDE\TYPE_TRAITS
D:\VS14\VC\INCLUDE\XSTDDEF
D:\VS14\VC\INCLUDE\CSTDDEF
D:\VS14\VC\INCLUDE\INITIALIZER_LIST
C:\PROGRAM FILES (X86)\WINDOWS KITS\10\INCLUDE\10.0.10240.0\UCRT\MALLOC.H
D:\VS14\VC\INCLUDE\VCRUNTIME_EXCEPTION.H
D:\VS14\VC\INCLUDE\EH.H
C:\PROGRAM FILES (X86)\WINDOWS KITS\10\INCLUDE\10.0.10240.0\UCRT\CORECRT_TERMINATE.H
D:\VS14\VC\INCLUDE\XSTRING
D:\VS14\VC\INCLUDE\XMEMORY0
D:\VS14\VC\INCLUDE\CSTDINT
D:\VS14\VC\INCLUDE\STDINT.H
D:\VS14\VC\INCLUDE\LIMITS
D:\VS14\VC\INCLUDE\YMATH.H
D:\VS14\VC\INCLUDE\CFLOAT
C:\PROGRAM FILES (X86)\WINDOWS KITS\10\INCLUDE\10.0.10240.0\UCRT\FLOAT.H
D:\VS14\VC\INCLUDE\CWCHAR
C:\PROGRAM FILES (X86)\WINDOWS KITS\10\INCLUDE\10.0.10240.0\UCRT\WCHAR.H
C:\PROGRAM FILES (X86)\WINDOWS KITS\10\INCLUDE\10.0.10240.0\UCRT\CORECRT_WCONIO.H
C:\PROGRAM FILES (X86)\WINDOWS KITS\10\INCLUDE\10.0.10240.0\UCRT\CORECRT_WCTYPE.H
C:\PROGRAM FILES (X86)\WINDOWS KITS\10\INCLUDE\10.0.10240.0\UCRT\CORECRT_WDIRECT.H
C:\PROGRAM FILES (X86)\WINDOWS KITS\10\INCLUDE\10.0.10240.0\UCRT\CORECRT_WIO.H
C:\PROGRAM FILES (X86)\WINDOWS KITS\10\INCLUDE\10.0.10240.0\UCRT\CORECRT_SHARE.H
C:\PROGRAM FILES (X86)\WINDOWS KITS\10\INCLUDE\10.0.10240.0\UCRT\CORECRT_WPROCESS.H
C:\PROGRAM FILES (X86)\WINDOWS KITS\10\INCLUDE\10.0.10240.0\UCRT\CORECRT_WTIME.H
C:\PROGRAM FILES (X86)\WINDOWS KITS\10\INCLUDE\10.0.10240.0\UCRT\SYS\STAT.H
C:\PROGRAM FILES (X86)\WINDOWS KITS\10\INCLUDE\10.0.10240.0\UCRT\SYS\TYPES.H
D:\VS14\VC\INCLUDE\NEW
D:\VS14\VC\INCLUDE\VCRUNTIME_NEW.H
D:\VS14\VC\INCLUDE\XUTILITY
D:\VS14\VC\INCLUDE\UTILITY
D:\VS14\VC\INCLUDE\IOSFWD
C:\PROGRAM FILES (X86)\WINDOWS KITS\10\INCLUDE\10.0.10240.0\UCRT\CRTDBG.H
D:\VS14\VC\INCLUDE\VCRUNTIME_NEW_DEBUG.H
D:\VS14\VC\INCLUDE\XATOMIC0.H
D:\VS14\VC\INCLUDE\INTRIN.H
D:\VS14\VC\INCLUDE\SETJMP.H
D:\VS14\VC\INCLUDE\IMMINTRIN.H
D:\VS14\VC\INCLUDE\WMMINTRIN.H
D:\VS14\VC\INCLUDE\NMMINTRIN.H
D:\VS14\VC\INCLUDE\SMMINTRIN.H
D:\VS14\VC\INCLUDE\TMMINTRIN.H
D:\VS14\VC\INCLUDE\PMMINTRIN.H
D:\VS14\VC\INCLUDE\EMMINTRIN.H
D:\VS14\VC\INCLUDE\XMMINTRIN.H
D:\VS14\VC\INCLUDE\MMINTRIN.H
D:\VS14\VC\INCLUDE\AMMINTRIN.H
D:\VS14\VC\INCLUDE\MM3DNOW.H
D:\VS14\VC\INCLUDE\TYPEINFO
D:\VS14\VC\INCLUDE\VCRUNTIME_TYPEINFO.H
D:\VS14\VC\INCLUDE\XLOCINFO
D:\VS14\VC\INCLUDE\XLOCINFO.H
C:\PROGRAM FILES (X86)\WINDOWS KITS\10\INCLUDE\10.0.10240.0\UCRT\CTYPE.H
C:\PROGRAM FILES (X86)\WINDOWS KITS\10\INCLUDE\10.0.10240.0\UCRT\LOCALE.H
D:\VS14\VC\INCLUDE\XFACET
D:\VS14\VC\INCLUDE\SYSTEM_ERROR
D:\VS14\VC\INCLUDE\CERRNO
C:\PROGRAM FILES (X86)\WINDOWS KITS\10\INCLUDE\10.0.10240.0\UCRT\SHARE.H
D:\VS14\VC\INCLUDE\FSTREAM
D:\VS14\VC\INCLUDE\VECTOR
D:\VS14\VC\INCLUDE\XMEMORY
D:\PROJECTS\DN - DEVELOPMENTAL NETWORKS\DEVELOPMENTALNETWORK-GENERAL\DEVELOPMENTALNETWORK\VECTORS.H
D:\VS14\VC\INCLUDE\ALGORITHM
D:\VS14\VC\INCLUDE\SET
D:\VS14\VC\INCLUDE\XTREE
D:\VS14\VC\INCLUDE\MAP
D:\VS14\VC\INCLUDE\TUPLE
